%YAML 1.1
%TAG !u! tag:unity3d.com,2011:
--- !u!29 &1
OcclusionCullingSettings:
  m_ObjectHideFlags: 0
  serializedVersion: 2
  m_OcclusionBakeSettings:
    smallestOccluder: 5
    smallestHole: 0.25
    backfaceThreshold: 100
  m_SceneGUID: 00000000000000000000000000000000
  m_OcclusionCullingData: {fileID: 0}
--- !u!104 &2
RenderSettings:
  m_ObjectHideFlags: 0
  serializedVersion: 9
  m_Fog: 1
  m_FogColor: {r: 0.4862745, g: 0.69411767, b: 0.8117647, a: 1}
  m_FogMode: 3
  m_FogDensity: 0.025
  m_LinearFogStart: 0
  m_LinearFogEnd: 300
  m_AmbientSkyColor: {r: 0.9386859, g: 0.90466136, b: 0.84687346, a: 1}
  m_AmbientEquatorColor: {r: 0.114, g: 0.125, b: 0.133, a: 1}
  m_AmbientGroundColor: {r: 0.047, g: 0.043, b: 0.035, a: 1}
  m_AmbientIntensity: 1
  m_AmbientMode: 0
  m_SubtractiveShadowColor: {r: 0.42, g: 0.478, b: 0.627, a: 1}
  m_SkyboxMaterial: {fileID: 2100000, guid: aeab33f69c199e54794f516d31450ec4, type: 2}
  m_HaloStrength: 0.5
  m_FlareStrength: 1
  m_FlareFadeSpeed: 3
  m_HaloTexture: {fileID: 0}
  m_SpotCookie: {fileID: 10001, guid: 0000000000000000e000000000000000, type: 0}
  m_DefaultReflectionMode: 1
  m_DefaultReflectionResolution: 128
  m_ReflectionBounces: 5
  m_ReflectionIntensity: 1
  m_CustomReflection: {fileID: 8900000, guid: 619e305f5165a9946b7f72464e44ca4a, type: 3}
  m_Sun: {fileID: 2114283754330233425}
  m_IndirectSpecularColor: {r: 0.029152213, g: 0.064445764, b: 0.12695098, a: 1}
  m_UseRadianceAmbientProbe: 0
--- !u!157 &3
LightmapSettings:
  m_ObjectHideFlags: 0
  serializedVersion: 12
  m_GIWorkflowMode: 1
  m_GISettings:
    serializedVersion: 2
    m_BounceScale: 1
    m_IndirectOutputScale: 1
    m_AlbedoBoost: 1
    m_EnvironmentLightingMode: 0
    m_EnableBakedLightmaps: 1
    m_EnableRealtimeLightmaps: 0
  m_LightmapEditorSettings:
    serializedVersion: 12
    m_Resolution: 2
    m_BakeResolution: 80
    m_AtlasSize: 1024
    m_AO: 1
    m_AOMaxDistance: 1
    m_CompAOExponent: 0.4
    m_CompAOExponentDirect: 0.4
    m_ExtractAmbientOcclusion: 0
    m_Padding: 2
    m_LightmapParameters: {fileID: 15204, guid: 0000000000000000f000000000000000, type: 0}
    m_LightmapsBakeMode: 1
    m_TextureCompression: 1
    m_FinalGather: 0
    m_FinalGatherFiltering: 1
    m_FinalGatherRayCount: 256
    m_ReflectionCompression: 2
    m_MixedBakeMode: 2
    m_BakeBackend: 1
    m_PVRSampling: 1
    m_PVRDirectSampleCount: 400
    m_PVRSampleCount: 400
    m_PVRBounces: 4
    m_PVREnvironmentSampleCount: 500
    m_PVREnvironmentReferencePointCount: 2048
    m_PVRFilteringMode: 1
    m_PVRDenoiserTypeDirect: 1
    m_PVRDenoiserTypeIndirect: 1
    m_PVRDenoiserTypeAO: 1
    m_PVRFilterTypeDirect: 0
    m_PVRFilterTypeIndirect: 0
    m_PVRFilterTypeAO: 0
    m_PVREnvironmentMIS: 1
    m_PVRCulling: 0
    m_PVRFilteringGaussRadiusDirect: 1
    m_PVRFilteringGaussRadiusIndirect: 5
    m_PVRFilteringGaussRadiusAO: 2
    m_PVRFilteringAtrousPositionSigmaDirect: 0.5
    m_PVRFilteringAtrousPositionSigmaIndirect: 2
    m_PVRFilteringAtrousPositionSigmaAO: 1
    m_ExportTrainingData: 0
    m_TrainingDataDestination: TrainingData
    m_LightProbeSampleCountMultiplier: 4
  m_LightingDataAsset: {fileID: 112000000, guid: 2690b0834b22e2940b40018922228eb6, type: 2}
  m_LightingSettings: {fileID: 4890085278179872738, guid: 3b3f7400d3526e9429c39d03afb714b3, type: 2}
--- !u!196 &4
NavMeshSettings:
  serializedVersion: 2
  m_ObjectHideFlags: 0
  m_BuildSettings:
    serializedVersion: 2
    agentTypeID: 0
    agentRadius: 0.5
    agentHeight: 2
    agentSlope: 45
    agentClimb: 0.4
    ledgeDropHeight: 0
    maxJumpAcrossDistance: 0
    minRegionArea: 2
    manualCellSize: 0
    cellSize: 0.16666667
    manualTileSize: 0
    tileSize: 256
    accuratePlacement: 0
    maxJobWorkers: 0
    preserveTilesOutsideBounds: 0
    debug:
      m_Flags: 0
  m_NavMeshData: {fileID: 0}
--- !u!1 &69158306
GameObject:
  m_ObjectHideFlags: 0
  m_CorrespondingSourceObject: {fileID: 0}
  m_PrefabInstance: {fileID: 0}
  m_PrefabAsset: {fileID: 0}
  serializedVersion: 6
  m_Component:
  - component: {fileID: 69158307}
  - component: {fileID: 69158310}
  - component: {fileID: 69158309}
  - component: {fileID: 69158308}
  - component: {fileID: 69158311}
  - component: {fileID: 69158312}
  m_Layer: 0
  m_Name: Sphere
  m_TagString: Untagged
  m_Icon: {fileID: 0}
  m_NavMeshLayer: 0
  m_StaticEditorFlags: 0
  m_IsActive: 1
--- !u!4 &69158307
Transform:
  m_ObjectHideFlags: 0
  m_CorrespondingSourceObject: {fileID: 0}
  m_PrefabInstance: {fileID: 0}
  m_PrefabAsset: {fileID: 0}
  m_GameObject: {fileID: 69158306}
  m_LocalRotation: {x: -0, y: -0, z: -0, w: 1}
  m_LocalPosition: {x: 0, y: 1.7, z: 4.59}
  m_LocalScale: {x: 1, y: 1, z: 1}
  m_Children: []
  m_Father: {fileID: 0}
  m_RootOrder: 8
  m_LocalEulerAnglesHint: {x: 0, y: 0, z: 0}
--- !u!135 &69158308
SphereCollider:
  m_ObjectHideFlags: 0
  m_CorrespondingSourceObject: {fileID: 0}
  m_PrefabInstance: {fileID: 0}
  m_PrefabAsset: {fileID: 0}
  m_GameObject: {fileID: 69158306}
  m_Material: {fileID: 0}
  m_IsTrigger: 0
  m_Enabled: 1
  serializedVersion: 2
  m_Radius: 0.5
  m_Center: {x: 0, y: 0, z: 0}
--- !u!23 &69158309
MeshRenderer:
  m_ObjectHideFlags: 0
  m_CorrespondingSourceObject: {fileID: 0}
  m_PrefabInstance: {fileID: 0}
  m_PrefabAsset: {fileID: 0}
  m_GameObject: {fileID: 69158306}
  m_Enabled: 1
  m_CastShadows: 1
  m_ReceiveShadows: 1
  m_DynamicOccludee: 1
  m_MotionVectors: 1
  m_LightProbeUsage: 1
  m_ReflectionProbeUsage: 1
  m_RayTracingMode: 2
  m_RayTraceProcedural: 0
  m_RenderingLayerMask: 1
  m_RendererPriority: 0
  m_Materials:
  - {fileID: 2100000, guid: 31321ba15b8f8eb4c954353edc038b1d, type: 2}
  m_StaticBatchInfo:
    firstSubMesh: 0
    subMeshCount: 0
  m_StaticBatchRoot: {fileID: 0}
  m_ProbeAnchor: {fileID: 0}
  m_LightProbeVolumeOverride: {fileID: 0}
  m_ScaleInLightmap: 1
  m_ReceiveGI: 1
  m_PreserveUVs: 0
  m_IgnoreNormalsForChartDetection: 0
  m_ImportantGI: 0
  m_StitchLightmapSeams: 1
  m_SelectedEditorRenderState: 3
  m_MinimumChartSize: 4
  m_AutoUVMaxDistance: 0.5
  m_AutoUVMaxAngle: 89
  m_LightmapParameters: {fileID: 0}
  m_SortingLayerID: 0
  m_SortingLayer: 0
  m_SortingOrder: 0
  m_AdditionalVertexStreams: {fileID: 0}
--- !u!33 &69158310
MeshFilter:
  m_ObjectHideFlags: 0
  m_CorrespondingSourceObject: {fileID: 0}
  m_PrefabInstance: {fileID: 0}
  m_PrefabAsset: {fileID: 0}
  m_GameObject: {fileID: 69158306}
  m_Mesh: {fileID: 10207, guid: 0000000000000000e000000000000000, type: 0}
--- !u!114 &69158311
MonoBehaviour:
  m_ObjectHideFlags: 0
  m_CorrespondingSourceObject: {fileID: 0}
  m_PrefabInstance: {fileID: 0}
  m_PrefabAsset: {fileID: 0}
  m_GameObject: {fileID: 69158306}
  m_Enabled: 1
  m_EditorHideFlags: 0
  m_Script: {fileID: 11500000, guid: 5fea29bb7c508c244a1f805a5fd3fc4d, type: 3}
  m_Name: 
  m_EditorClassIdentifier: 
  outlineMode: 1
  outlineColor: {r: 0.063412234, g: 0.8962264, b: 0.06809444, a: 1}
  outlineWidth: 0
  precomputeOutline: 0
  bakeKeys: []
  bakeValues: []
--- !u!114 &69158312
MonoBehaviour:
  m_ObjectHideFlags: 0
  m_CorrespondingSourceObject: {fileID: 0}
  m_PrefabInstance: {fileID: 0}
  m_PrefabAsset: {fileID: 0}
  m_GameObject: {fileID: 69158306}
  m_Enabled: 1
  m_EditorHideFlags: 0
  m_Script: {fileID: 11500000, guid: 2e9782cf37ca38c4a8c82ef1fbda57a0, type: 3}
  m_Name: 
  m_EditorClassIdentifier: 
  isDroppable: 0
  collectableItemData: {fileID: 11400000, guid: 722bccccddbfeb54ab9d6d3a04b4d52a, type: 2}
--- !u!114 &245581005 stripped
MonoBehaviour:
  m_CorrespondingSourceObject: {fileID: 8279798545678494202, guid: f0271df749728104eac22c3d897fd8ce, type: 3}
  m_PrefabInstance: {fileID: 746329221}
  m_PrefabAsset: {fileID: 0}
  m_GameObject: {fileID: 0}
  m_Enabled: 1
  m_EditorHideFlags: 0
  m_Script: {fileID: 11500000, guid: 01614664b831546d2ae94a42149d80ac, type: 3}
  m_Name: 
  m_EditorClassIdentifier: 
--- !u!1 &311094134
GameObject:
  m_ObjectHideFlags: 0
  m_CorrespondingSourceObject: {fileID: 0}
  m_PrefabInstance: {fileID: 0}
  m_PrefabAsset: {fileID: 0}
  serializedVersion: 6
  m_Component:
  - component: {fileID: 311094136}
  - component: {fileID: 311094135}
  m_Layer: 0
  m_Name: Menagers
  m_TagString: Untagged
  m_Icon: {fileID: 0}
  m_NavMeshLayer: 0
  m_StaticEditorFlags: 0
  m_IsActive: 1
--- !u!114 &311094135
MonoBehaviour:
  m_ObjectHideFlags: 0
  m_CorrespondingSourceObject: {fileID: 0}
  m_PrefabInstance: {fileID: 0}
  m_PrefabAsset: {fileID: 0}
  m_GameObject: {fileID: 311094134}
  m_Enabled: 1
  m_EditorHideFlags: 0
  m_Script: {fileID: 11500000, guid: 8ad32663f9096ff42b473835ef93af05, type: 3}
  m_Name: 
  m_EditorClassIdentifier: 
  gameObjectPlayer: {fileID: 1739939240}
  gameObjectPlayerCam: {fileID: 954310126}
  gameObjectUIMenu: {fileID: 1991659644}
  gameObjetUiMenuCam: {fileID: 892730876}
--- !u!4 &311094136
Transform:
  m_ObjectHideFlags: 0
  m_CorrespondingSourceObject: {fileID: 0}
  m_PrefabInstance: {fileID: 0}
  m_PrefabAsset: {fileID: 0}
  m_GameObject: {fileID: 311094134}
  m_LocalRotation: {x: 0, y: 0, z: 0, w: 1}
  m_LocalPosition: {x: 6.881203, y: 1.4691391, z: 10.848265}
  m_LocalScale: {x: 1, y: 1, z: 1}
  m_Children:
  - {fileID: 1861964118}
  m_Father: {fileID: 0}
  m_RootOrder: 0
  m_LocalEulerAnglesHint: {x: 0, y: 0, z: 0}
--- !u!1 &542508511
GameObject:
  m_ObjectHideFlags: 0
  m_CorrespondingSourceObject: {fileID: 0}
  m_PrefabInstance: {fileID: 0}
  m_PrefabAsset: {fileID: 0}
  serializedVersion: 6
  m_Component:
  - component: {fileID: 542508512}
  - component: {fileID: 542508513}
  m_Layer: 0
  m_Name: Reflection Probe (1)
  m_TagString: Untagged
  m_Icon: {fileID: 0}
  m_NavMeshLayer: 0
  m_StaticEditorFlags: 0
  m_IsActive: 1
--- !u!4 &542508512
Transform:
  m_ObjectHideFlags: 0
  m_CorrespondingSourceObject: {fileID: 0}
  m_PrefabInstance: {fileID: 0}
  m_PrefabAsset: {fileID: 0}
  m_GameObject: {fileID: 542508511}
  m_LocalRotation: {x: -0, y: -0, z: -0, w: 1}
  m_LocalPosition: {x: 6.486, y: 1.566, z: 11.068}
  m_LocalScale: {x: 1, y: 1, z: 1}
  m_Children: []
  m_Father: {fileID: 2114283753834967213}
  m_RootOrder: 3
  m_LocalEulerAnglesHint: {x: 0, y: 0, z: 0}
--- !u!215 &542508513
ReflectionProbe:
  m_ObjectHideFlags: 0
  m_CorrespondingSourceObject: {fileID: 0}
  m_PrefabInstance: {fileID: 0}
  m_PrefabAsset: {fileID: 0}
  m_GameObject: {fileID: 542508511}
  m_Enabled: 1
  serializedVersion: 2
  m_Type: 0
  m_Mode: 0
  m_RefreshMode: 0
  m_TimeSlicingMode: 0
  m_Resolution: 128
  m_UpdateFrequency: 0
  m_BoxSize: {x: 6.791793, y: 3.0818176, z: 6.757762}
  m_BoxOffset: {x: 0.3952031, y: -0.096860886, z: -0.21973467}
  m_NearClip: 0.3
  m_FarClip: 1000
  m_ShadowDistance: 100
  m_ClearFlags: 1
  m_BackGroundColor: {r: 0.19215687, g: 0.3019608, b: 0.4745098, a: 0}
  m_CullingMask:
    serializedVersion: 2
    m_Bits: 4294967295
  m_IntensityMultiplier: 1
  m_BlendDistance: 1
  m_HDR: 1
  m_BoxProjection: 0
  m_RenderDynamicObjects: 0
  m_UseOcclusionCulling: 1
  m_Importance: 1
  m_CustomBakedTexture: {fileID: 0}
--- !u!1 &557261773
GameObject:
  m_ObjectHideFlags: 0
  m_CorrespondingSourceObject: {fileID: 0}
  m_PrefabInstance: {fileID: 0}
  m_PrefabAsset: {fileID: 0}
  serializedVersion: 6
  m_Component:
  - component: {fileID: 557261774}
  - component: {fileID: 557261777}
  - component: {fileID: 557261776}
  - component: {fileID: 557261775}
  m_Layer: 5
  m_Name: Button
  m_TagString: Untagged
  m_Icon: {fileID: 0}
  m_NavMeshLayer: 0
  m_StaticEditorFlags: 0
  m_IsActive: 1
--- !u!224 &557261774
RectTransform:
  m_ObjectHideFlags: 0
  m_CorrespondingSourceObject: {fileID: 0}
  m_PrefabInstance: {fileID: 0}
  m_PrefabAsset: {fileID: 0}
  m_GameObject: {fileID: 557261773}
  m_LocalRotation: {x: -0, y: -0, z: -0, w: 1}
  m_LocalPosition: {x: 0, y: 0, z: 0}
  m_LocalScale: {x: 1, y: 1, z: 1}
  m_Children:
  - {fileID: 1729202937}
  m_Father: {fileID: 1311837277}
  m_RootOrder: 0
  m_LocalEulerAnglesHint: {x: 0, y: 0, z: 0}
  m_AnchorMin: {x: 0.5, y: 0.5}
  m_AnchorMax: {x: 0.5, y: 0.5}
  m_AnchoredPosition: {x: 0.0036621094, y: -0.7160034}
  m_SizeDelta: {x: 160, y: 30}
  m_Pivot: {x: 0.5, y: 0.5}
--- !u!114 &557261775
MonoBehaviour:
  m_ObjectHideFlags: 0
  m_CorrespondingSourceObject: {fileID: 0}
  m_PrefabInstance: {fileID: 0}
  m_PrefabAsset: {fileID: 0}
  m_GameObject: {fileID: 557261773}
  m_Enabled: 1
  m_EditorHideFlags: 0
  m_Script: {fileID: 11500000, guid: 4e29b1a8efbd4b44bb3f3716e73f07ff, type: 3}
  m_Name: 
  m_EditorClassIdentifier: 
  m_Navigation:
    m_Mode: 3
    m_WrapAround: 0
    m_SelectOnUp: {fileID: 0}
    m_SelectOnDown: {fileID: 0}
    m_SelectOnLeft: {fileID: 0}
    m_SelectOnRight: {fileID: 0}
  m_Transition: 1
  m_Colors:
    m_NormalColor: {r: 1, g: 1, b: 1, a: 1}
    m_HighlightedColor: {r: 0.9607843, g: 0.9607843, b: 0.9607843, a: 1}
    m_PressedColor: {r: 0.78431374, g: 0.78431374, b: 0.78431374, a: 1}
    m_SelectedColor: {r: 0.9607843, g: 0.9607843, b: 0.9607843, a: 1}
    m_DisabledColor: {r: 0.78431374, g: 0.78431374, b: 0.78431374, a: 0.5019608}
    m_ColorMultiplier: 1
    m_FadeDuration: 0.1
  m_SpriteState:
    m_HighlightedSprite: {fileID: 0}
    m_PressedSprite: {fileID: 0}
    m_SelectedSprite: {fileID: 0}
    m_DisabledSprite: {fileID: 0}
  m_AnimationTriggers:
    m_NormalTrigger: Normal
    m_HighlightedTrigger: Highlighted
    m_PressedTrigger: Pressed
    m_SelectedTrigger: Selected
    m_DisabledTrigger: Disabled
  m_Interactable: 1
  m_TargetGraphic: {fileID: 557261776}
  m_OnClick:
    m_PersistentCalls:
      m_Calls:
      - m_Target: {fileID: 311094135}
        m_TargetAssemblyTypeName: SenneEntreteiner.GameManager, Assembly-CSharp
        m_MethodName: OnButtonClickChange
        m_Mode: 5
        m_Arguments:
          m_ObjectArgument: {fileID: 0}
          m_ObjectArgumentAssemblyTypeName: UnityEngine.Object, UnityEngine
          m_IntArgument: 0
          m_FloatArgument: 0
          m_StringArgument: play
          m_BoolArgument: 0
        m_CallState: 2
--- !u!114 &557261776
MonoBehaviour:
  m_ObjectHideFlags: 0
  m_CorrespondingSourceObject: {fileID: 0}
  m_PrefabInstance: {fileID: 0}
  m_PrefabAsset: {fileID: 0}
  m_GameObject: {fileID: 557261773}
  m_Enabled: 1
  m_EditorHideFlags: 0
  m_Script: {fileID: 11500000, guid: fe87c0e1cc204ed48ad3b37840f39efc, type: 3}
  m_Name: 
  m_EditorClassIdentifier: 
  m_Material: {fileID: 0}
  m_Color: {r: 1, g: 1, b: 1, a: 1}
  m_RaycastTarget: 1
  m_RaycastPadding: {x: 0, y: 0, z: 0, w: 0}
  m_Maskable: 1
  m_OnCullStateChanged:
    m_PersistentCalls:
      m_Calls: []
  m_Sprite: {fileID: 10905, guid: 0000000000000000f000000000000000, type: 0}
  m_Type: 1
  m_PreserveAspect: 0
  m_FillCenter: 1
  m_FillMethod: 4
  m_FillAmount: 1
  m_FillClockwise: 1
  m_FillOrigin: 0
  m_UseSpriteMesh: 0
  m_PixelsPerUnitMultiplier: 1
--- !u!222 &557261777
CanvasRenderer:
  m_ObjectHideFlags: 0
  m_CorrespondingSourceObject: {fileID: 0}
  m_PrefabInstance: {fileID: 0}
  m_PrefabAsset: {fileID: 0}
  m_GameObject: {fileID: 557261773}
  m_CullTransparentMesh: 1
--- !u!1001 &746329221
PrefabInstance:
  m_ObjectHideFlags: 0
  serializedVersion: 2
  m_Modification:
    m_TransformParent: {fileID: 0}
    m_Modifications:
    - target: {fileID: 1992104595683069851, guid: f0271df749728104eac22c3d897fd8ce, type: 3}
      propertyPath: m_Name
      value: UI_EventSystem
      objectReference: {fileID: 0}
    - target: {fileID: 8063073397250431797, guid: f0271df749728104eac22c3d897fd8ce, type: 3}
      propertyPath: m_RootOrder
      value: 6
      objectReference: {fileID: 0}
    - target: {fileID: 8063073397250431797, guid: f0271df749728104eac22c3d897fd8ce, type: 3}
      propertyPath: m_LocalScale.x
      value: 1
      objectReference: {fileID: 0}
    - target: {fileID: 8063073397250431797, guid: f0271df749728104eac22c3d897fd8ce, type: 3}
      propertyPath: m_LocalScale.y
      value: 1
      objectReference: {fileID: 0}
    - target: {fileID: 8063073397250431797, guid: f0271df749728104eac22c3d897fd8ce, type: 3}
      propertyPath: m_LocalScale.z
      value: 1
      objectReference: {fileID: 0}
    - target: {fileID: 8063073397250431797, guid: f0271df749728104eac22c3d897fd8ce, type: 3}
      propertyPath: m_LocalPosition.x
      value: 0
      objectReference: {fileID: 0}
    - target: {fileID: 8063073397250431797, guid: f0271df749728104eac22c3d897fd8ce, type: 3}
      propertyPath: m_LocalPosition.y
      value: 0
      objectReference: {fileID: 0}
    - target: {fileID: 8063073397250431797, guid: f0271df749728104eac22c3d897fd8ce, type: 3}
      propertyPath: m_LocalPosition.z
      value: 0
      objectReference: {fileID: 0}
    - target: {fileID: 8063073397250431797, guid: f0271df749728104eac22c3d897fd8ce, type: 3}
      propertyPath: m_LocalRotation.w
      value: 1
      objectReference: {fileID: 0}
    - target: {fileID: 8063073397250431797, guid: f0271df749728104eac22c3d897fd8ce, type: 3}
      propertyPath: m_LocalRotation.x
      value: -0
      objectReference: {fileID: 0}
    - target: {fileID: 8063073397250431797, guid: f0271df749728104eac22c3d897fd8ce, type: 3}
      propertyPath: m_LocalRotation.y
      value: -0
      objectReference: {fileID: 0}
    - target: {fileID: 8063073397250431797, guid: f0271df749728104eac22c3d897fd8ce, type: 3}
      propertyPath: m_LocalRotation.z
      value: -0
      objectReference: {fileID: 0}
    - target: {fileID: 8063073397250431797, guid: f0271df749728104eac22c3d897fd8ce, type: 3}
      propertyPath: m_LocalEulerAnglesHint.x
      value: 0
      objectReference: {fileID: 0}
    - target: {fileID: 8063073397250431797, guid: f0271df749728104eac22c3d897fd8ce, type: 3}
      propertyPath: m_LocalEulerAnglesHint.y
      value: 0
      objectReference: {fileID: 0}
    - target: {fileID: 8063073397250431797, guid: f0271df749728104eac22c3d897fd8ce, type: 3}
      propertyPath: m_LocalEulerAnglesHint.z
      value: 0
      objectReference: {fileID: 0}
    m_RemovedComponents: []
  m_SourcePrefab: {fileID: 100100000, guid: f0271df749728104eac22c3d897fd8ce, type: 3}
--- !u!1 &790020696
GameObject:
  m_ObjectHideFlags: 3
  m_CorrespondingSourceObject: {fileID: 0}
  m_PrefabInstance: {fileID: 0}
  m_PrefabAsset: {fileID: 0}
  serializedVersion: 6
  m_Component:
  - component: {fileID: 790020697}
  - component: {fileID: 790020698}
  m_Layer: 0
  m_Name: cm
  m_TagString: Untagged
  m_Icon: {fileID: 0}
  m_NavMeshLayer: 0
  m_StaticEditorFlags: 0
  m_IsActive: 1
--- !u!4 &790020697
Transform:
  m_ObjectHideFlags: 3
  m_CorrespondingSourceObject: {fileID: 0}
  m_PrefabInstance: {fileID: 0}
  m_PrefabAsset: {fileID: 0}
  m_GameObject: {fileID: 790020696}
  m_LocalRotation: {x: 0.0434216, y: 0.4249972, z: 0.020415584, w: 0.9039221}
  m_LocalPosition: {x: -156.75659, y: -313.23138, z: 594.7164}
  m_LocalScale: {x: 1, y: 1, z: 1}
  m_Children: []
  m_Father: {fileID: 1991659644}
  m_RootOrder: 0
  m_LocalEulerAnglesHint: {x: 0, y: 0, z: 0}
--- !u!114 &790020698
MonoBehaviour:
  m_ObjectHideFlags: 3
  m_CorrespondingSourceObject: {fileID: 0}
  m_PrefabInstance: {fileID: 0}
  m_PrefabAsset: {fileID: 0}
  m_GameObject: {fileID: 790020696}
  m_Enabled: 1
  m_EditorHideFlags: 0
  m_Script: {fileID: 11500000, guid: ac0b09e7857660247b1477e93731de29, type: 3}
  m_Name: 
  m_EditorClassIdentifier: 
--- !u!1 &840511581
GameObject:
  m_ObjectHideFlags: 0
  m_CorrespondingSourceObject: {fileID: 0}
  m_PrefabInstance: {fileID: 0}
  m_PrefabAsset: {fileID: 0}
  serializedVersion: 6
  m_Component:
  - component: {fileID: 840511586}
  - component: {fileID: 840511585}
  - component: {fileID: 840511584}
  - component: {fileID: 840511583}
  - component: {fileID: 840511582}
  - component: {fileID: 840511587}
  m_Layer: 0
  m_Name: Sphere (2)
  m_TagString: Untagged
  m_Icon: {fileID: 0}
  m_NavMeshLayer: 0
  m_StaticEditorFlags: 0
  m_IsActive: 1
--- !u!114 &840511582
MonoBehaviour:
  m_ObjectHideFlags: 0
  m_CorrespondingSourceObject: {fileID: 0}
  m_PrefabInstance: {fileID: 0}
  m_PrefabAsset: {fileID: 0}
  m_GameObject: {fileID: 840511581}
  m_Enabled: 1
  m_EditorHideFlags: 0
  m_Script: {fileID: 11500000, guid: 5fea29bb7c508c244a1f805a5fd3fc4d, type: 3}
  m_Name: 
  m_EditorClassIdentifier: 
  outlineMode: 1
  outlineColor: {r: 0.063412234, g: 0.8962264, b: 0.06809444, a: 1}
  outlineWidth: 0
  precomputeOutline: 0
  bakeKeys: []
  bakeValues: []
--- !u!135 &840511583
SphereCollider:
  m_ObjectHideFlags: 0
  m_CorrespondingSourceObject: {fileID: 0}
  m_PrefabInstance: {fileID: 0}
  m_PrefabAsset: {fileID: 0}
  m_GameObject: {fileID: 840511581}
  m_Material: {fileID: 0}
  m_IsTrigger: 0
  m_Enabled: 1
  serializedVersion: 2
  m_Radius: 0.5
  m_Center: {x: 0, y: 0, z: 0}
--- !u!23 &840511584
MeshRenderer:
  m_ObjectHideFlags: 0
  m_CorrespondingSourceObject: {fileID: 0}
  m_PrefabInstance: {fileID: 0}
  m_PrefabAsset: {fileID: 0}
  m_GameObject: {fileID: 840511581}
  m_Enabled: 1
  m_CastShadows: 1
  m_ReceiveShadows: 1
  m_DynamicOccludee: 1
  m_MotionVectors: 1
  m_LightProbeUsage: 1
  m_ReflectionProbeUsage: 1
  m_RayTracingMode: 2
  m_RayTraceProcedural: 0
  m_RenderingLayerMask: 1
  m_RendererPriority: 0
  m_Materials:
  - {fileID: 2100000, guid: 31321ba15b8f8eb4c954353edc038b1d, type: 2}
  m_StaticBatchInfo:
    firstSubMesh: 0
    subMeshCount: 0
  m_StaticBatchRoot: {fileID: 0}
  m_ProbeAnchor: {fileID: 0}
  m_LightProbeVolumeOverride: {fileID: 0}
  m_ScaleInLightmap: 1
  m_ReceiveGI: 1
  m_PreserveUVs: 0
  m_IgnoreNormalsForChartDetection: 0
  m_ImportantGI: 0
  m_StitchLightmapSeams: 1
  m_SelectedEditorRenderState: 3
  m_MinimumChartSize: 4
  m_AutoUVMaxDistance: 0.5
  m_AutoUVMaxAngle: 89
  m_LightmapParameters: {fileID: 0}
  m_SortingLayerID: 0
  m_SortingLayer: 0
  m_SortingOrder: 0
  m_AdditionalVertexStreams: {fileID: 0}
--- !u!33 &840511585
MeshFilter:
  m_ObjectHideFlags: 0
  m_CorrespondingSourceObject: {fileID: 0}
  m_PrefabInstance: {fileID: 0}
  m_PrefabAsset: {fileID: 0}
  m_GameObject: {fileID: 840511581}
  m_Mesh: {fileID: 10207, guid: 0000000000000000e000000000000000, type: 0}
--- !u!4 &840511586
Transform:
  m_ObjectHideFlags: 0
  m_CorrespondingSourceObject: {fileID: 0}
  m_PrefabInstance: {fileID: 0}
  m_PrefabAsset: {fileID: 0}
  m_GameObject: {fileID: 840511581}
  m_LocalRotation: {x: -0, y: -0, z: -0, w: 1}
  m_LocalPosition: {x: -3.34, y: 1.7, z: 2.46}
  m_LocalScale: {x: 1, y: 1, z: 1}
  m_Children: []
  m_Father: {fileID: 0}
  m_RootOrder: 10
  m_LocalEulerAnglesHint: {x: 0, y: 0, z: 0}
--- !u!114 &840511587
MonoBehaviour:
  m_ObjectHideFlags: 0
  m_CorrespondingSourceObject: {fileID: 0}
  m_PrefabInstance: {fileID: 0}
  m_PrefabAsset: {fileID: 0}
  m_GameObject: {fileID: 840511581}
  m_Enabled: 1
  m_EditorHideFlags: 0
  m_Script: {fileID: 11500000, guid: 2e9782cf37ca38c4a8c82ef1fbda57a0, type: 3}
  m_Name: 
  m_EditorClassIdentifier: 
  isDroppable: 0
  collectableItemData: {fileID: 11400000, guid: 7bf3ca31b83892040a92eab76e081286, type: 2}
--- !u!1 &874605735
GameObject:
  m_ObjectHideFlags: 0
  m_CorrespondingSourceObject: {fileID: 0}
  m_PrefabInstance: {fileID: 0}
  m_PrefabAsset: {fileID: 0}
  serializedVersion: 6
  m_Component:
  - component: {fileID: 874605736}
  - component: {fileID: 874605737}
  m_Layer: 0
  m_Name: Light Probe Group (1)
  m_TagString: Untagged
  m_Icon: {fileID: 0}
  m_NavMeshLayer: 0
  m_StaticEditorFlags: 0
  m_IsActive: 1
--- !u!4 &874605736
Transform:
  m_ObjectHideFlags: 0
  m_CorrespondingSourceObject: {fileID: 0}
  m_PrefabInstance: {fileID: 0}
  m_PrefabAsset: {fileID: 0}
  m_GameObject: {fileID: 874605735}
  m_LocalRotation: {x: -0, y: -0, z: -0, w: 1}
  m_LocalPosition: {x: 0.19, y: 1.79, z: 21.97}
  m_LocalScale: {x: 1, y: 1, z: 1}
  m_Children: []
  m_Father: {fileID: 2114283753834967213}
  m_RootOrder: 4
  m_LocalEulerAnglesHint: {x: 0, y: 0, z: 0}
--- !u!220 &874605737
LightProbeGroup:
  m_ObjectHideFlags: 0
  m_CorrespondingSourceObject: {fileID: 0}
  m_PrefabInstance: {fileID: 0}
  m_PrefabAsset: {fileID: 0}
  m_GameObject: {fileID: 874605735}
  m_Enabled: 1
  m_SourcePositions:
  - {x: -6.4548373, y: 8.806516, z: 6.631113}
  - {x: -6.4548373, y: -1.5343618, z: 6.631113}
  - {x: 8.993203, y: 8.806516, z: 6.631113}
  - {x: 8.993203, y: -1.5343618, z: 6.631113}
  - {x: -11.939235, y: 8.806516, z: 6.631113}
  - {x: -11.939235, y: -1.5343618, z: 6.631113}
  - {x: 3.7731261, y: 8.806516, z: 6.631113}
  - {x: 3.7731261, y: -1.5343618, z: 6.631113}
  - {x: 20.137163, y: 8.806516, z: 6.631113}
  - {x: 20.137163, y: -1.5343618, z: 6.631113}
  - {x: 14.257168, y: 8.806516, z: 6.631113}
  - {x: 14.257168, y: -1.5343618, z: 6.631113}
  - {x: -6.4548373, y: 2.3566551, z: 6.631113}
  - {x: 8.993203, y: 2.3566551, z: 6.631113}
  - {x: -11.939235, y: 2.3566551, z: 6.631113}
  - {x: 3.7731261, y: 2.3566551, z: 6.631113}
  - {x: 20.137163, y: 2.3566551, z: 6.631113}
  - {x: 14.257168, y: 2.3566551, z: 6.631113}
  - {x: -1.5323329, y: 8.806516, z: 6.631113}
  - {x: -1.5323329, y: -1.5343618, z: 6.631113}
  - {x: -1.5323329, y: 2.3566551, z: 6.631113}
  - {x: -6.4548373, y: 8.806516, z: -23.531504}
  - {x: -6.4548373, y: -1.5343618, z: -23.531504}
  - {x: 8.993203, y: 8.806516, z: -23.531504}
  - {x: 8.993203, y: -1.5343618, z: -23.531504}
  - {x: -11.939235, y: 8.806516, z: -23.531504}
  - {x: -11.939235, y: -1.5343618, z: -23.531504}
  - {x: 3.7731261, y: 8.806516, z: -23.531504}
  - {x: 3.7731261, y: -1.5343618, z: -23.531504}
  - {x: 20.137163, y: 8.806516, z: -23.531504}
  - {x: 20.137163, y: -1.5343618, z: -23.531504}
  - {x: 14.257168, y: 8.806516, z: -23.531504}
  - {x: 14.257168, y: -1.5343618, z: -23.531504}
  - {x: -6.4548373, y: 2.3566551, z: -23.531504}
  - {x: 8.993203, y: 2.3566551, z: -23.531504}
  - {x: -11.939235, y: 2.3566551, z: -23.531504}
  - {x: 3.7731261, y: 2.3566551, z: -23.531504}
  - {x: 20.137163, y: 2.3566551, z: -23.531504}
  - {x: 14.257168, y: 2.3566551, z: -23.531504}
  - {x: -1.5323329, y: 8.806516, z: -23.531504}
  - {x: -1.5323329, y: -1.5343618, z: -23.531504}
  - {x: -1.5323329, y: 2.3566551, z: -23.531504}
  - {x: -6.4548373, y: 8.806516, z: -19.921879}
  - {x: -6.0616884, y: -1.5343618, z: -19.921879}
  - {x: 8.993203, y: 8.806516, z: -19.921879}
  - {x: 8.993203, y: -1.5343618, z: -19.921879}
  - {x: -11.939235, y: 8.806516, z: -19.921879}
  - {x: -11.939235, y: -1.5343618, z: -19.921879}
  - {x: 3.7731261, y: 8.806516, z: -19.921879}
  - {x: 3.7731261, y: -1.5343618, z: -19.921879}
  - {x: 20.137163, y: 8.806516, z: -19.921879}
  - {x: 20.137163, y: -1.5343618, z: -19.921879}
  - {x: 14.257168, y: 8.806516, z: -19.921879}
  - {x: 14.257168, y: -1.5343618, z: -19.921879}
  - {x: -6.4548373, y: 2.3566551, z: -19.921879}
  - {x: 8.993203, y: 2.3566551, z: -19.921879}
  - {x: -11.939235, y: 2.3566551, z: -19.921879}
  - {x: 3.7731261, y: 2.3566551, z: -19.921879}
  - {x: 20.137163, y: 2.3566551, z: -19.921879}
  - {x: 14.257168, y: 2.3566551, z: -19.921879}
  - {x: -1.5323329, y: 8.806516, z: -19.921879}
  - {x: -1.5323329, y: -1.5343618, z: -19.921879}
  - {x: -1.5323329, y: 2.3566551, z: -19.921879}
  - {x: -6.4548373, y: 8.806516, z: -16.06502}
  - {x: -6.4548373, y: -1.5343618, z: -16.06502}
  - {x: 8.993203, y: 8.806516, z: -16.06502}
  - {x: 8.993203, y: -1.5343618, z: -16.06502}
  - {x: -11.939235, y: 8.806516, z: -16.06502}
  - {x: -11.939235, y: -1.5343618, z: -16.06502}
  - {x: 3.7731261, y: 8.806516, z: -16.06502}
  - {x: 3.7731261, y: -1.5343618, z: -16.06502}
  - {x: 20.137163, y: 8.806516, z: -16.06502}
  - {x: 20.137163, y: -1.5343618, z: -16.06502}
  - {x: 14.257168, y: 8.806516, z: -16.06502}
  - {x: 14.257168, y: -1.5343618, z: -16.06502}
  - {x: -6.4548373, y: 2.3566551, z: -16.06502}
  - {x: 8.993203, y: 2.3566551, z: -16.06502}
  - {x: -11.939235, y: 2.3566551, z: -16.06502}
  - {x: 3.7731261, y: 2.3566551, z: -16.06502}
  - {x: 20.137163, y: 2.3566551, z: -16.06502}
  - {x: 14.257168, y: 2.3566551, z: -16.06502}
  - {x: -1.5323329, y: 8.806516, z: -16.06502}
  - {x: -1.5323329, y: -1.5343618, z: -16.06502}
  - {x: -1.5323329, y: 2.3566551, z: -16.06502}
  - {x: -6.4548373, y: 8.806516, z: -12.3070545}
  - {x: -6.4548373, y: -1.5343618, z: -12.3070545}
  - {x: 8.993203, y: 8.806516, z: -12.3070545}
  - {x: 8.993203, y: -1.1842765, z: -13.780704}
  - {x: -11.939235, y: 8.806516, z: -12.3070545}
  - {x: -11.939235, y: -1.5343618, z: -12.3070545}
  - {x: 3.7731261, y: 8.806516, z: -12.3070545}
  - {x: 6.021616, y: 0.8727715, z: -13.780704}
  - {x: 20.137163, y: 8.806516, z: -12.3070545}
  - {x: 20.137163, y: -1.5343618, z: -12.3070545}
  - {x: 14.257168, y: 8.806516, z: -12.3070545}
  - {x: 14.257168, y: -1.1973814, z: -12.3070545}
  - {x: -6.4548373, y: 2.3566551, z: -12.3070545}
  - {x: 1.6883464, y: 2.7763042, z: -6.8005238}
  - {x: -11.939235, y: 2.3566551, z: -12.3070545}
  - {x: 3.7731261, y: 4.7772913, z: -12.3070545}
  - {x: 20.137163, y: 2.3566551, z: -12.3070545}
  - {x: 14.257168, y: 2.3566551, z: -12.3070545}
  - {x: -1.5323329, y: 8.806516, z: -12.3070545}
  - {x: -1.5323329, y: -1.5343618, z: -12.3070545}
  - {x: -1.5323329, y: 2.3566551, z: -12.3070545}
  - {x: -6.4548373, y: 8.806516, z: -8.796325}
  - {x: -6.4548373, y: -1.5343618, z: -8.796325}
  - {x: 8.993203, y: 8.806516, z: -8.796325}
  - {x: 8.993203, y: -1.1842765, z: -8.796325}
  - {x: -11.939235, y: 8.806516, z: -8.796325}
  - {x: -11.939235, y: -1.5343618, z: -8.796325}
  - {x: 3.7731261, y: 8.806516, z: -8.796325}
  - {x: 6.021616, y: 0.8727715, z: -8.796325}
  - {x: 20.137163, y: 8.806516, z: -8.796325}
  - {x: 20.137163, y: -1.5343618, z: -8.796325}
  - {x: 14.257168, y: 8.806516, z: -8.796325}
  - {x: 14.257168, y: -1.1973814, z: -8.796325}
  - {x: -6.4548373, y: 2.3566551, z: -8.796325}
  - {x: 6.695057, y: 2.3566551, z: -8.796325}
  - {x: -11.939235, y: 2.3566551, z: -8.796325}
  - {x: 3.7731261, y: 2.3566551, z: -8.796325}
  - {x: 20.137163, y: 2.3566551, z: -8.796325}
  - {x: 14.257168, y: 2.3566551, z: -8.796325}
  - {x: -1.5323329, y: 8.806516, z: -8.796325}
  - {x: 1.6580772, y: 1.1665359, z: -8.796325}
  - {x: -1.5323329, y: 2.3566551, z: -8.796325}
  - {x: -6.4548373, y: 8.806516, z: -4.8405704}
  - {x: -6.4548373, y: -1.5343618, z: -4.8405704}
  - {x: 8.993203, y: 8.806516, z: -4.8405704}
  - {x: 9.349902, y: -1.2554649, z: -1.9392796}
  - {x: -11.939235, y: 8.806516, z: -4.8405704}
  - {x: -11.939235, y: -1.5343618, z: -4.8405704}
  - {x: 3.7731261, y: 8.806516, z: -4.8405704}
  - {x: 3.7731261, y: -1.5343618, z: -4.8405704}
  - {x: 20.137163, y: 8.806516, z: -4.8405704}
  - {x: 20.137163, y: -1.5343618, z: -4.8405704}
  - {x: 14.257168, y: 8.806516, z: -4.8405704}
  - {x: 10.899697, y: -1.2109127, z: -10.787819}
  - {x: -6.4548373, y: 2.3566551, z: -4.8405704}
  - {x: 6.930959, y: 3.292191, z: -5.2275963}
  - {x: -11.939235, y: 2.3566551, z: -4.8405704}
  - {x: 3.7731261, y: 2.3566551, z: -4.8405704}
  - {x: 20.137163, y: 2.3566551, z: -4.8405704}
  - {x: 14.257168, y: 2.3566551, z: -4.8405704}
  - {x: -1.5323329, y: 8.806516, z: -4.8405704}
  - {x: 1.6580772, y: 1.1665359, z: -4.8405704}
  - {x: -1.5323329, y: 2.3566551, z: -4.8405704}
  - {x: -6.4548373, y: 8.806516, z: -0.7364769}
  - {x: -6.4548373, y: -1.5343618, z: -0.7364769}
  - {x: 8.993203, y: 8.806516, z: -0.7364769}
  - {x: 8.993203, y: -1.5343618, z: -0.7364769}
  - {x: -11.939235, y: 8.806516, z: -0.7364769}
  - {x: -11.939235, y: -1.5343618, z: -0.7364769}
  - {x: 3.7731261, y: 8.806516, z: -0.7364769}
  - {x: 3.7731261, y: -1.5343618, z: -0.7364769}
  - {x: 20.137163, y: 8.806516, z: -0.7364769}
  - {x: 20.137163, y: -1.5343618, z: -0.7364769}
  - {x: 14.257168, y: 8.806516, z: -0.7364769}
  - {x: 14.257168, y: -1.5343618, z: -0.7364769}
  - {x: -6.4548373, y: 2.3566551, z: -0.7364769}
  - {x: 8.993203, y: 2.3566551, z: -0.7364769}
  - {x: -11.939235, y: 2.3566551, z: -0.7364769}
  - {x: 3.7731261, y: 2.3566551, z: -0.7364769}
  - {x: 20.137163, y: 2.3566551, z: -0.7364769}
  - {x: 14.257168, y: 2.3566551, z: -0.7364769}
  - {x: -1.5323329, y: 8.806516, z: -0.7364769}
  - {x: -1.5323329, y: -1.5343618, z: -0.7364769}
  - {x: -1.5323329, y: 2.3566551, z: -0.7364769}
  - {x: -6.4548373, y: 8.806516, z: 2.972042}
  - {x: -6.4548373, y: -1.5343618, z: 2.972042}
  - {x: 8.993203, y: 8.806516, z: 2.972042}
  - {x: 8.993203, y: -1.5343618, z: 2.972042}
  - {x: -11.939235, y: 8.806516, z: 2.972042}
  - {x: -11.939235, y: -1.5343618, z: 2.972042}
  - {x: 3.7731261, y: 8.806516, z: 2.972042}
  - {x: 3.7731261, y: -1.5343618, z: 2.972042}
  - {x: 20.137163, y: 8.806516, z: 2.972042}
  - {x: 20.137163, y: -1.5343618, z: 2.972042}
  - {x: 14.257168, y: 8.806516, z: 2.972042}
  - {x: 14.257168, y: -1.5343618, z: 1.788044}
  - {x: -6.4548373, y: 2.3566551, z: 2.972042}
  - {x: 8.993203, y: 2.3566551, z: 2.972042}
  - {x: -11.939235, y: 2.3566551, z: 2.972042}
  - {x: 3.7731261, y: 2.3566551, z: 2.972042}
  - {x: 20.137163, y: 2.3566551, z: 2.972042}
  - {x: 14.257168, y: 2.3566551, z: 2.972042}
  - {x: -1.5323329, y: 8.806516, z: 2.972042}
  - {x: -1.5323329, y: -1.5343618, z: 2.972042}
  - {x: -1.5323329, y: 2.3566551, z: 2.972042}
  - {x: 3.7731261, y: 0.8727715, z: -13.780704}
  - {x: 3.7731261, y: 0.8727715, z: -8.796325}
  - {x: 6.021616, y: -1.5343618, z: -13.780704}
  - {x: 6.021616, y: -1.5343618, z: -8.796325}
  - {x: 3.7731261, y: -1.5343618, z: -8.796325}
  - {x: 3.7731261, y: -1.5343618, z: -13.780704}
  - {x: 8.993203, y: -1.1842765, z: -11.099201}
  - {x: 6.021616, y: -1.5343618, z: -11.099201}
  - {x: 3.7731261, y: -1.5343618, z: -11.099201}
  - {x: 3.7731261, y: 0.8727715, z: -11.099201}
  - {x: 6.021616, y: 0.8727715, z: -11.099201}
  - {x: 7.5302963, y: -1.5343618, z: -13.780704}
  - {x: 7.5302963, y: -1.5343618, z: -11.099201}
  - {x: 7.5302963, y: 0.8727715, z: -13.780704}
  - {x: 7.5302963, y: 0.8727715, z: -11.099201}
  - {x: 7.5302963, y: -1.5343618, z: -8.796325}
  - {x: 7.5302963, y: 0.8727715, z: -8.796325}
  - {x: 1.6580772, y: -1.5343618, z: -8.796325}
  - {x: 1.6580772, y: -1.5343618, z: -4.8405704}
  - {x: -2.8646894, y: 1.1665359, z: -8.796325}
  - {x: -2.8646894, y: 1.1665359, z: -4.8405704}
  - {x: -2.8646894, y: -1.5343618, z: -4.8405704}
  - {x: -2.8646894, y: -1.5343618, z: -8.796325}
  - {x: -0.6420018, y: 1.1665359, z: -8.796325}
  - {x: -0.6420018, y: 1.1665359, z: -4.8405704}
  - {x: -0.6420018, y: -1.5343618, z: -4.8405704}
  - {x: -0.6420018, y: -1.5343618, z: -8.796325}
  - {x: 5.4116697, y: 0.2312541, z: -3.227993}
  - {x: 5.4116697, y: -1.2554649, z: -1.9392796}
  - {x: 14.257168, y: -1.2109127, z: -4.8405704}
  - {x: 9.325397, y: 1.6076849, z: -5.8184357}
  - {x: 11.965946, y: -1.2109127, z: -5.8184357}
  - {x: 8.993203, y: 3.6047301, z: -12.3070545}
  - {x: 7.1518564, y: 5.7025332, z: -13.247855}
  - {x: 7.1518564, y: 2.7763042, z: -11.2319765}
  - {x: 8.993203, y: 2.3566551, z: -8.796325}
  m_Dering: 1
--- !u!1 &892730872
GameObject:
  m_ObjectHideFlags: 0
  m_CorrespondingSourceObject: {fileID: 0}
  m_PrefabInstance: {fileID: 0}
  m_PrefabAsset: {fileID: 0}
  serializedVersion: 6
  m_Component:
  - component: {fileID: 892730876}
  - component: {fileID: 892730875}
  - component: {fileID: 892730874}
  - component: {fileID: 892730873}
  m_Layer: 5
  m_Name: UIMenuCanvas
  m_TagString: Untagged
  m_Icon: {fileID: 0}
  m_NavMeshLayer: 0
  m_StaticEditorFlags: 0
  m_IsActive: 0
--- !u!114 &892730873
MonoBehaviour:
  m_ObjectHideFlags: 0
  m_CorrespondingSourceObject: {fileID: 0}
  m_PrefabInstance: {fileID: 0}
  m_PrefabAsset: {fileID: 0}
  m_GameObject: {fileID: 892730872}
  m_Enabled: 1
  m_EditorHideFlags: 0
  m_Script: {fileID: 11500000, guid: dc42784cf147c0c48a680349fa168899, type: 3}
  m_Name: 
  m_EditorClassIdentifier: 
  m_IgnoreReversedGraphics: 1
  m_BlockingObjects: 0
  m_BlockingMask:
    serializedVersion: 2
    m_Bits: 4294967295
--- !u!114 &892730874
MonoBehaviour:
  m_ObjectHideFlags: 0
  m_CorrespondingSourceObject: {fileID: 0}
  m_PrefabInstance: {fileID: 0}
  m_PrefabAsset: {fileID: 0}
  m_GameObject: {fileID: 892730872}
  m_Enabled: 1
  m_EditorHideFlags: 0
  m_Script: {fileID: 11500000, guid: 0cd44c1031e13a943bb63640046fad76, type: 3}
  m_Name: 
  m_EditorClassIdentifier: 
  m_UiScaleMode: 1
  m_ReferencePixelsPerUnit: 100
  m_ScaleFactor: 1
  m_ReferenceResolution: {x: 1080, y: 720}
  m_ScreenMatchMode: 0
  m_MatchWidthOrHeight: 0
  m_PhysicalUnit: 3
  m_FallbackScreenDPI: 96
  m_DefaultSpriteDPI: 96
  m_DynamicPixelsPerUnit: 1
  m_PresetInfoIsWorld: 0
--- !u!223 &892730875
Canvas:
  m_ObjectHideFlags: 0
  m_CorrespondingSourceObject: {fileID: 0}
  m_PrefabInstance: {fileID: 0}
  m_PrefabAsset: {fileID: 0}
  m_GameObject: {fileID: 892730872}
  m_Enabled: 1
  serializedVersion: 3
  m_RenderMode: 0
  m_Camera: {fileID: 1954216206}
  m_PlaneDistance: 100
  m_PixelPerfect: 0
  m_ReceivesEvents: 1
  m_OverrideSorting: 0
  m_OverridePixelPerfect: 0
  m_SortingBucketNormalizedSize: 0
  m_AdditionalShaderChannelsFlag: 25
  m_SortingLayerID: 0
  m_SortingOrder: 0
  m_TargetDisplay: 0
--- !u!224 &892730876
RectTransform:
  m_ObjectHideFlags: 0
  m_CorrespondingSourceObject: {fileID: 0}
  m_PrefabInstance: {fileID: 0}
  m_PrefabAsset: {fileID: 0}
  m_GameObject: {fileID: 892730872}
  m_LocalRotation: {x: 0, y: 0, z: 0, w: 1}
  m_LocalPosition: {x: 0, y: 0, z: 0}
  m_LocalScale: {x: 0, y: 0, z: 0}
  m_Children:
  - {fileID: 1311837277}
  m_Father: {fileID: 0}
  m_RootOrder: 7
  m_LocalEulerAnglesHint: {x: 0, y: 0, z: 0}
  m_AnchorMin: {x: 0, y: 0}
  m_AnchorMax: {x: 0, y: 0}
  m_AnchoredPosition: {x: 0, y: 0}
  m_SizeDelta: {x: 0, y: 0}
  m_Pivot: {x: 0, y: 0}
--- !u!4 &954310126 stripped
Transform:
  m_CorrespondingSourceObject: {fileID: 8997996947095583982, guid: c5efc39a8aaf6e64ea40e9ad573e9b47, type: 3}
  m_PrefabInstance: {fileID: 5393215579111688471}
  m_PrefabAsset: {fileID: 0}
--- !u!1 &1028513131
GameObject:
  m_ObjectHideFlags: 0
  m_CorrespondingSourceObject: {fileID: 0}
  m_PrefabInstance: {fileID: 0}
  m_PrefabAsset: {fileID: 0}
  serializedVersion: 6
  m_Component:
  - component: {fileID: 1028513133}
  - component: {fileID: 1028513132}
  m_Layer: 0
  m_Name: Reflection Probe
  m_TagString: Untagged
  m_Icon: {fileID: 0}
  m_NavMeshLayer: 0
  m_StaticEditorFlags: 0
  m_IsActive: 1
--- !u!215 &1028513132
ReflectionProbe:
  m_ObjectHideFlags: 0
  m_CorrespondingSourceObject: {fileID: 0}
  m_PrefabInstance: {fileID: 0}
  m_PrefabAsset: {fileID: 0}
  m_GameObject: {fileID: 1028513131}
  m_Enabled: 1
  serializedVersion: 2
  m_Type: 0
  m_Mode: 0
  m_RefreshMode: 0
  m_TimeSlicingMode: 0
  m_Resolution: 128
  m_UpdateFrequency: 0
  m_BoxSize: {x: 40.607887, y: 19.86776, z: 37.433754}
  m_BoxOffset: {x: 2.4737587, y: -4.2929897, z: 3.4355164}
  m_NearClip: 0.3
  m_FarClip: 1000
  m_ShadowDistance: 100
  m_ClearFlags: 1
  m_BackGroundColor: {r: 0.19215687, g: 0.3019608, b: 0.4745098, a: 0}
  m_CullingMask:
    serializedVersion: 2
    m_Bits: 4294967295
  m_IntensityMultiplier: 1
  m_BlendDistance: 1
  m_HDR: 1
  m_BoxProjection: 1
  m_RenderDynamicObjects: 0
  m_UseOcclusionCulling: 1
  m_Importance: 1
  m_CustomBakedTexture: {fileID: 0}
--- !u!4 &1028513133
Transform:
  m_ObjectHideFlags: 0
  m_CorrespondingSourceObject: {fileID: 0}
  m_PrefabInstance: {fileID: 0}
  m_PrefabAsset: {fileID: 0}
  m_GameObject: {fileID: 1028513131}
  m_LocalRotation: {x: -0, y: -0, z: -0, w: 1}
  m_LocalPosition: {x: 1.5, y: 12, z: 10}
  m_LocalScale: {x: 1, y: 1, z: 1}
  m_Children: []
  m_Father: {fileID: 2114283753834967213}
  m_RootOrder: 1
  m_LocalEulerAnglesHint: {x: 0, y: 0, z: 0}
--- !u!1 &1116169463
GameObject:
  m_ObjectHideFlags: 0
  m_CorrespondingSourceObject: {fileID: 0}
  m_PrefabInstance: {fileID: 0}
  m_PrefabAsset: {fileID: 0}
  serializedVersion: 6
  m_Component:
  - component: {fileID: 1116169468}
  - component: {fileID: 1116169467}
  - component: {fileID: 1116169466}
  - component: {fileID: 1116169465}
  - component: {fileID: 1116169464}
  - component: {fileID: 1116169469}
  m_Layer: 0
  m_Name: Sphere (1)
  m_TagString: Untagged
  m_Icon: {fileID: 0}
  m_NavMeshLayer: 0
  m_StaticEditorFlags: 0
  m_IsActive: 1
--- !u!114 &1116169464
MonoBehaviour:
  m_ObjectHideFlags: 0
  m_CorrespondingSourceObject: {fileID: 0}
  m_PrefabInstance: {fileID: 0}
  m_PrefabAsset: {fileID: 0}
  m_GameObject: {fileID: 1116169463}
  m_Enabled: 1
  m_EditorHideFlags: 0
  m_Script: {fileID: 11500000, guid: 5fea29bb7c508c244a1f805a5fd3fc4d, type: 3}
  m_Name: 
  m_EditorClassIdentifier: 
  outlineMode: 1
  outlineColor: {r: 0.063412234, g: 0.8962264, b: 0.06809444, a: 1}
  outlineWidth: 0
  precomputeOutline: 0
  bakeKeys: []
  bakeValues: []
--- !u!135 &1116169465
SphereCollider:
  m_ObjectHideFlags: 0
  m_CorrespondingSourceObject: {fileID: 0}
  m_PrefabInstance: {fileID: 0}
  m_PrefabAsset: {fileID: 0}
  m_GameObject: {fileID: 1116169463}
  m_Material: {fileID: 0}
  m_IsTrigger: 0
  m_Enabled: 1
  serializedVersion: 2
  m_Radius: 0.5
  m_Center: {x: 0, y: 0, z: 0}
--- !u!23 &1116169466
MeshRenderer:
  m_ObjectHideFlags: 0
  m_CorrespondingSourceObject: {fileID: 0}
  m_PrefabInstance: {fileID: 0}
  m_PrefabAsset: {fileID: 0}
  m_GameObject: {fileID: 1116169463}
  m_Enabled: 1
  m_CastShadows: 1
  m_ReceiveShadows: 1
  m_DynamicOccludee: 1
  m_MotionVectors: 1
  m_LightProbeUsage: 1
  m_ReflectionProbeUsage: 1
  m_RayTracingMode: 2
  m_RayTraceProcedural: 0
  m_RenderingLayerMask: 1
  m_RendererPriority: 0
  m_Materials:
  - {fileID: 2100000, guid: 31321ba15b8f8eb4c954353edc038b1d, type: 2}
  m_StaticBatchInfo:
    firstSubMesh: 0
    subMeshCount: 0
  m_StaticBatchRoot: {fileID: 0}
  m_ProbeAnchor: {fileID: 0}
  m_LightProbeVolumeOverride: {fileID: 0}
  m_ScaleInLightmap: 1
  m_ReceiveGI: 1
  m_PreserveUVs: 0
  m_IgnoreNormalsForChartDetection: 0
  m_ImportantGI: 0
  m_StitchLightmapSeams: 1
  m_SelectedEditorRenderState: 3
  m_MinimumChartSize: 4
  m_AutoUVMaxDistance: 0.5
  m_AutoUVMaxAngle: 89
  m_LightmapParameters: {fileID: 0}
  m_SortingLayerID: 0
  m_SortingLayer: 0
  m_SortingOrder: 0
  m_AdditionalVertexStreams: {fileID: 0}
--- !u!33 &1116169467
MeshFilter:
  m_ObjectHideFlags: 0
  m_CorrespondingSourceObject: {fileID: 0}
  m_PrefabInstance: {fileID: 0}
  m_PrefabAsset: {fileID: 0}
  m_GameObject: {fileID: 1116169463}
  m_Mesh: {fileID: 10207, guid: 0000000000000000e000000000000000, type: 0}
--- !u!4 &1116169468
Transform:
  m_ObjectHideFlags: 0
  m_CorrespondingSourceObject: {fileID: 0}
  m_PrefabInstance: {fileID: 0}
  m_PrefabAsset: {fileID: 0}
  m_GameObject: {fileID: 1116169463}
  m_LocalRotation: {x: -0, y: -0, z: -0, w: 1}
  m_LocalPosition: {x: 4.64, y: 3.92, z: 4.59}
  m_LocalScale: {x: 1, y: 1, z: 1}
  m_Children: []
  m_Father: {fileID: 0}
  m_RootOrder: 9
  m_LocalEulerAnglesHint: {x: 0, y: 0, z: 0}
--- !u!114 &1116169469
MonoBehaviour:
  m_ObjectHideFlags: 0
  m_CorrespondingSourceObject: {fileID: 0}
  m_PrefabInstance: {fileID: 0}
  m_PrefabAsset: {fileID: 0}
  m_GameObject: {fileID: 1116169463}
  m_Enabled: 1
  m_EditorHideFlags: 0
  m_Script: {fileID: 11500000, guid: 2e9782cf37ca38c4a8c82ef1fbda57a0, type: 3}
  m_Name: 
  m_EditorClassIdentifier: 
  isDroppable: 0
  collectableItemData: {fileID: 11400000, guid: 4c90f9b270185d74d9525286e3795c6d, type: 2}
--- !u!1 &1311837276
GameObject:
  m_ObjectHideFlags: 0
  m_CorrespondingSourceObject: {fileID: 0}
  m_PrefabInstance: {fileID: 0}
  m_PrefabAsset: {fileID: 0}
  serializedVersion: 6
  m_Component:
  - component: {fileID: 1311837277}
  - component: {fileID: 1311837279}
  - component: {fileID: 1311837278}
  m_Layer: 5
  m_Name: Panel
  m_TagString: Untagged
  m_Icon: {fileID: 0}
  m_NavMeshLayer: 0
  m_StaticEditorFlags: 0
  m_IsActive: 1
--- !u!224 &1311837277
RectTransform:
  m_ObjectHideFlags: 0
  m_CorrespondingSourceObject: {fileID: 0}
  m_PrefabInstance: {fileID: 0}
  m_PrefabAsset: {fileID: 0}
  m_GameObject: {fileID: 1311837276}
  m_LocalRotation: {x: 0, y: 0, z: 0, w: 1}
  m_LocalPosition: {x: 0, y: 0, z: 0}
  m_LocalScale: {x: 1, y: 1, z: 1}
  m_Children:
  - {fileID: 557261774}
  m_Father: {fileID: 892730876}
  m_RootOrder: 0
  m_LocalEulerAnglesHint: {x: 0, y: 0, z: 0}
  m_AnchorMin: {x: 0, y: 0}
  m_AnchorMax: {x: 1, y: 1}
  m_AnchoredPosition: {x: 0, y: 0}
  m_SizeDelta: {x: 0, y: 0}
  m_Pivot: {x: 0.5, y: 0.5}
--- !u!114 &1311837278
MonoBehaviour:
  m_ObjectHideFlags: 0
  m_CorrespondingSourceObject: {fileID: 0}
  m_PrefabInstance: {fileID: 0}
  m_PrefabAsset: {fileID: 0}
  m_GameObject: {fileID: 1311837276}
  m_Enabled: 1
  m_EditorHideFlags: 0
  m_Script: {fileID: 11500000, guid: fe87c0e1cc204ed48ad3b37840f39efc, type: 3}
  m_Name: 
  m_EditorClassIdentifier: 
  m_Material: {fileID: 0}
  m_Color: {r: 0.079432175, g: 0.15582557, b: 0.4811321, a: 1}
  m_RaycastTarget: 1
  m_RaycastPadding: {x: 0, y: 0, z: 0, w: 0}
  m_Maskable: 1
  m_OnCullStateChanged:
    m_PersistentCalls:
      m_Calls: []
  m_Sprite: {fileID: 10907, guid: 0000000000000000f000000000000000, type: 0}
  m_Type: 1
  m_PreserveAspect: 0
  m_FillCenter: 1
  m_FillMethod: 4
  m_FillAmount: 1
  m_FillClockwise: 1
  m_FillOrigin: 0
  m_UseSpriteMesh: 0
  m_PixelsPerUnitMultiplier: 1
--- !u!222 &1311837279
CanvasRenderer:
  m_ObjectHideFlags: 0
  m_CorrespondingSourceObject: {fileID: 0}
  m_PrefabInstance: {fileID: 0}
  m_PrefabAsset: {fileID: 0}
  m_GameObject: {fileID: 1311837276}
  m_CullTransparentMesh: 1
--- !u!1 &1460737534
GameObject:
  m_ObjectHideFlags: 0
  m_CorrespondingSourceObject: {fileID: 0}
  m_PrefabInstance: {fileID: 0}
  m_PrefabAsset: {fileID: 0}
  serializedVersion: 6
  m_Component:
  - component: {fileID: 1460737540}
  - component: {fileID: 1460737539}
  - component: {fileID: 1460737538}
  - component: {fileID: 1460737537}
  - component: {fileID: 1460737536}
  - component: {fileID: 1460737535}
  - component: {fileID: 1460737541}
  - component: {fileID: 1460737542}
  m_Layer: 0
  m_Name: Cube
  m_TagString: Untagged
  m_Icon: {fileID: 0}
  m_NavMeshLayer: 0
  m_StaticEditorFlags: 0
  m_IsActive: 1
--- !u!114 &1460737535
MonoBehaviour:
  m_ObjectHideFlags: 0
  m_CorrespondingSourceObject: {fileID: 0}
  m_PrefabInstance: {fileID: 0}
  m_PrefabAsset: {fileID: 0}
  m_GameObject: {fileID: 1460737534}
  m_Enabled: 1
  m_EditorHideFlags: 0
  m_Script: {fileID: 11500000, guid: 8c497def2ddfa27448a48ccdc8c7abbc, type: 3}
  m_Name: 
  m_EditorClassIdentifier: 
  collectableItemData: {fileID: 11400000, guid: 4c90f9b270185d74d9525286e3795c6d, type: 2}
--- !u!114 &1460737536
MonoBehaviour:
  m_ObjectHideFlags: 0
  m_CorrespondingSourceObject: {fileID: 0}
  m_PrefabInstance: {fileID: 0}
  m_PrefabAsset: {fileID: 0}
  m_GameObject: {fileID: 1460737534}
  m_Enabled: 1
  m_EditorHideFlags: 0
  m_Script: {fileID: 11500000, guid: e956115fd373fd340b40c15bef66460f, type: 3}
  m_Name: 
  m_EditorClassIdentifier: 
--- !u!65 &1460737537
BoxCollider:
  m_ObjectHideFlags: 0
  m_CorrespondingSourceObject: {fileID: 0}
  m_PrefabInstance: {fileID: 0}
  m_PrefabAsset: {fileID: 0}
  m_GameObject: {fileID: 1460737534}
  m_Material: {fileID: 0}
  m_IsTrigger: 0
  m_Enabled: 1
  serializedVersion: 2
  m_Size: {x: 1, y: 1, z: 1}
  m_Center: {x: 0, y: 0, z: 0}
--- !u!23 &1460737538
MeshRenderer:
  m_ObjectHideFlags: 0
  m_CorrespondingSourceObject: {fileID: 0}
  m_PrefabInstance: {fileID: 0}
  m_PrefabAsset: {fileID: 0}
  m_GameObject: {fileID: 1460737534}
  m_Enabled: 1
  m_CastShadows: 1
  m_ReceiveShadows: 1
  m_DynamicOccludee: 1
  m_MotionVectors: 1
  m_LightProbeUsage: 1
  m_ReflectionProbeUsage: 1
  m_RayTracingMode: 2
  m_RayTraceProcedural: 0
  m_RenderingLayerMask: 1
  m_RendererPriority: 0
  m_Materials:
  - {fileID: 2100000, guid: 31321ba15b8f8eb4c954353edc038b1d, type: 2}
  m_StaticBatchInfo:
    firstSubMesh: 0
    subMeshCount: 0
  m_StaticBatchRoot: {fileID: 0}
  m_ProbeAnchor: {fileID: 0}
  m_LightProbeVolumeOverride: {fileID: 0}
  m_ScaleInLightmap: 1
  m_ReceiveGI: 1
  m_PreserveUVs: 0
  m_IgnoreNormalsForChartDetection: 0
  m_ImportantGI: 0
  m_StitchLightmapSeams: 1
  m_SelectedEditorRenderState: 3
  m_MinimumChartSize: 4
  m_AutoUVMaxDistance: 0.5
  m_AutoUVMaxAngle: 89
  m_LightmapParameters: {fileID: 0}
  m_SortingLayerID: 0
  m_SortingLayer: 0
  m_SortingOrder: 0
  m_AdditionalVertexStreams: {fileID: 0}
--- !u!33 &1460737539
MeshFilter:
  m_ObjectHideFlags: 0
  m_CorrespondingSourceObject: {fileID: 0}
  m_PrefabInstance: {fileID: 0}
  m_PrefabAsset: {fileID: 0}
  m_GameObject: {fileID: 1460737534}
  m_Mesh: {fileID: 10202, guid: 0000000000000000e000000000000000, type: 0}
--- !u!4 &1460737540
Transform:
  m_ObjectHideFlags: 0
  m_CorrespondingSourceObject: {fileID: 0}
  m_PrefabInstance: {fileID: 0}
  m_PrefabAsset: {fileID: 0}
  m_GameObject: {fileID: 1460737534}
  m_LocalRotation: {x: 0, y: 0, z: 0, w: 1}
  m_LocalPosition: {x: 4.3911676, y: 1.24, z: 4.570638}
  m_LocalScale: {x: 0.5, y: 0.5, z: 0.5}
  m_Children: []
  m_Father: {fileID: 0}
  m_RootOrder: 12
  m_LocalEulerAnglesHint: {x: 0, y: 0, z: 0}
--- !u!114 &1460737541
MonoBehaviour:
  m_ObjectHideFlags: 0
  m_CorrespondingSourceObject: {fileID: 0}
  m_PrefabInstance: {fileID: 0}
  m_PrefabAsset: {fileID: 0}
  m_GameObject: {fileID: 1460737534}
  m_Enabled: 1
  m_EditorHideFlags: 0
  m_Script: {fileID: 11500000, guid: 5fea29bb7c508c244a1f805a5fd3fc4d, type: 3}
  m_Name: 
  m_EditorClassIdentifier: 
  outlineMode: 1
  outlineColor: {r: 0.063412234, g: 0.8962264, b: 0.06809444, a: 1}
  outlineWidth: 0
  precomputeOutline: 0
  bakeKeys: []
  bakeValues: []
--- !u!54 &1460737542
Rigidbody:
  m_ObjectHideFlags: 0
  m_CorrespondingSourceObject: {fileID: 0}
  m_PrefabInstance: {fileID: 0}
  m_PrefabAsset: {fileID: 0}
  m_GameObject: {fileID: 1460737534}
  serializedVersion: 2
  m_Mass: 1
  m_Drag: 0
  m_AngularDrag: 0.05
  m_UseGravity: 1
  m_IsKinematic: 0
  m_Interpolate: 0
  m_Constraints: 0
  m_CollisionDetection: 0
--- !u!1 &1729202936
GameObject:
  m_ObjectHideFlags: 0
  m_CorrespondingSourceObject: {fileID: 0}
  m_PrefabInstance: {fileID: 0}
  m_PrefabAsset: {fileID: 0}
  serializedVersion: 6
  m_Component:
  - component: {fileID: 1729202937}
  - component: {fileID: 1729202939}
  - component: {fileID: 1729202938}
  m_Layer: 5
  m_Name: Text (TMP)
  m_TagString: Untagged
  m_Icon: {fileID: 0}
  m_NavMeshLayer: 0
  m_StaticEditorFlags: 0
  m_IsActive: 1
--- !u!224 &1729202937
RectTransform:
  m_ObjectHideFlags: 0
  m_CorrespondingSourceObject: {fileID: 0}
  m_PrefabInstance: {fileID: 0}
  m_PrefabAsset: {fileID: 0}
  m_GameObject: {fileID: 1729202936}
  m_LocalRotation: {x: 0, y: 0, z: 0, w: 1}
  m_LocalPosition: {x: 0, y: 0, z: 0}
  m_LocalScale: {x: 1, y: 1, z: 1}
  m_Children: []
  m_Father: {fileID: 557261774}
  m_RootOrder: 0
  m_LocalEulerAnglesHint: {x: 0, y: 0, z: 0}
  m_AnchorMin: {x: 0, y: 0}
  m_AnchorMax: {x: 1, y: 1}
  m_AnchoredPosition: {x: 0, y: 0}
  m_SizeDelta: {x: 0, y: 0}
  m_Pivot: {x: 0.5, y: 0.5}
--- !u!114 &1729202938
MonoBehaviour:
  m_ObjectHideFlags: 0
  m_CorrespondingSourceObject: {fileID: 0}
  m_PrefabInstance: {fileID: 0}
  m_PrefabAsset: {fileID: 0}
  m_GameObject: {fileID: 1729202936}
  m_Enabled: 1
  m_EditorHideFlags: 0
  m_Script: {fileID: 11500000, guid: f4688fdb7df04437aeb418b961361dc5, type: 3}
  m_Name: 
  m_EditorClassIdentifier: 
  m_Material: {fileID: 0}
  m_Color: {r: 1, g: 1, b: 1, a: 1}
  m_RaycastTarget: 1
  m_RaycastPadding: {x: 0, y: 0, z: 0, w: 0}
  m_Maskable: 1
  m_OnCullStateChanged:
    m_PersistentCalls:
      m_Calls: []
  m_text: Button
  m_isRightToLeft: 0
  m_fontAsset: {fileID: 11400000, guid: 8f586378b4e144a9851e7b34d9b748ee, type: 2}
  m_sharedMaterial: {fileID: 2180264, guid: 8f586378b4e144a9851e7b34d9b748ee, type: 2}
  m_fontSharedMaterials: []
  m_fontMaterial: {fileID: 0}
  m_fontMaterials: []
  m_fontColor32:
    serializedVersion: 2
    rgba: 4281479730
  m_fontColor: {r: 0.19607843, g: 0.19607843, b: 0.19607843, a: 1}
  m_enableVertexGradient: 0
  m_colorMode: 3
  m_fontColorGradient:
    topLeft: {r: 1, g: 1, b: 1, a: 1}
    topRight: {r: 1, g: 1, b: 1, a: 1}
    bottomLeft: {r: 1, g: 1, b: 1, a: 1}
    bottomRight: {r: 1, g: 1, b: 1, a: 1}
  m_fontColorGradientPreset: {fileID: 0}
  m_spriteAsset: {fileID: 0}
  m_tintAllSprites: 0
  m_StyleSheet: {fileID: 0}
  m_TextStyleHashCode: -1183493901
  m_overrideHtmlColors: 0
  m_faceColor:
    serializedVersion: 2
    rgba: 4294967295
  m_fontSize: 24
  m_fontSizeBase: 24
  m_fontWeight: 400
  m_enableAutoSizing: 0
  m_fontSizeMin: 18
  m_fontSizeMax: 72
  m_fontStyle: 0
  m_HorizontalAlignment: 2
  m_VerticalAlignment: 512
  m_textAlignment: 65535
  m_characterSpacing: 0
  m_wordSpacing: 0
  m_lineSpacing: 0
  m_lineSpacingMax: 0
  m_paragraphSpacing: 0
  m_charWidthMaxAdj: 0
  m_enableWordWrapping: 1
  m_wordWrappingRatios: 0.4
  m_overflowMode: 0
  m_linkedTextComponent: {fileID: 0}
  parentLinkedComponent: {fileID: 0}
  m_enableKerning: 1
  m_enableExtraPadding: 0
  checkPaddingRequired: 0
  m_isRichText: 1
  m_parseCtrlCharacters: 1
  m_isOrthographic: 1
  m_isCullingEnabled: 0
  m_horizontalMapping: 0
  m_verticalMapping: 0
  m_uvLineOffset: 0
  m_geometrySortingOrder: 0
  m_IsTextObjectScaleStatic: 0
  m_VertexBufferAutoSizeReduction: 0
  m_useMaxVisibleDescender: 1
  m_pageToDisplay: 1
  m_margin: {x: 0, y: 0, z: 0, w: 0}
  m_isUsingLegacyAnimationComponent: 0
  m_isVolumetricText: 0
  m_hasFontAssetChanged: 0
  m_baseMaterial: {fileID: 0}
  m_maskOffset: {x: 0, y: 0, z: 0, w: 0}
--- !u!222 &1729202939
CanvasRenderer:
  m_ObjectHideFlags: 0
  m_CorrespondingSourceObject: {fileID: 0}
  m_PrefabInstance: {fileID: 0}
  m_PrefabAsset: {fileID: 0}
  m_GameObject: {fileID: 1729202936}
  m_CullTransparentMesh: 1
--- !u!4 &1739939240 stripped
Transform:
  m_CorrespondingSourceObject: {fileID: 8762286023885395322, guid: 9c489a8547f4d9e4387da15a4ff82c81, type: 3}
  m_PrefabInstance: {fileID: 7288094137546172433}
  m_PrefabAsset: {fileID: 0}
--- !u!1 &1764214107
GameObject:
  m_ObjectHideFlags: 0
  m_CorrespondingSourceObject: {fileID: 0}
  m_PrefabInstance: {fileID: 0}
  m_PrefabAsset: {fileID: 0}
  serializedVersion: 6
  m_Component:
  - component: {fileID: 1764214108}
  - component: {fileID: 1764214109}
  m_Layer: 0
  m_Name: Reflection Probe
  m_TagString: Untagged
  m_Icon: {fileID: 0}
  m_NavMeshLayer: 0
  m_StaticEditorFlags: 0
  m_IsActive: 1
--- !u!4 &1764214108
Transform:
  m_ObjectHideFlags: 0
  m_CorrespondingSourceObject: {fileID: 0}
  m_PrefabInstance: {fileID: 0}
  m_PrefabAsset: {fileID: 0}
  m_GameObject: {fileID: 1764214107}
  m_LocalRotation: {x: -0, y: -0, z: -0, w: 1}
  m_LocalPosition: {x: 0.965, y: 1.566, z: 15.191}
  m_LocalScale: {x: 1, y: 1, z: 1}
  m_Children: []
  m_Father: {fileID: 2114283753834967213}
  m_RootOrder: 2
  m_LocalEulerAnglesHint: {x: 0, y: 0, z: 0}
--- !u!215 &1764214109
ReflectionProbe:
  m_ObjectHideFlags: 0
  m_CorrespondingSourceObject: {fileID: 0}
  m_PrefabInstance: {fileID: 0}
  m_PrefabAsset: {fileID: 0}
  m_GameObject: {fileID: 1764214107}
  m_Enabled: 1
  serializedVersion: 2
  m_Type: 0
  m_Mode: 0
  m_RefreshMode: 0
  m_TimeSlicingMode: 0
  m_Resolution: 128
  m_UpdateFrequency: 0
  m_BoxSize: {x: 8.880261, y: 3.6585498, z: 4.8670416}
  m_BoxOffset: {x: -0.11674833, y: 0.1915052, z: -0.35990858}
  m_NearClip: 0.3
  m_FarClip: 1000
  m_ShadowDistance: 100
  m_ClearFlags: 1
  m_BackGroundColor: {r: 0.19215687, g: 0.3019608, b: 0.4745098, a: 0}
  m_CullingMask:
    serializedVersion: 2
    m_Bits: 4294967295
  m_IntensityMultiplier: 1
  m_BlendDistance: 1
  m_HDR: 1
  m_BoxProjection: 0
  m_RenderDynamicObjects: 0
  m_UseOcclusionCulling: 1
  m_Importance: 1
  m_CustomBakedTexture: {fileID: 0}
--- !u!1 &1802434741
GameObject:
  m_ObjectHideFlags: 0
  m_CorrespondingSourceObject: {fileID: 0}
  m_PrefabInstance: {fileID: 0}
  m_PrefabAsset: {fileID: 0}
  serializedVersion: 6
  m_Component:
  - component: {fileID: 1802434742}
  m_Layer: 0
  m_Name: Cams
  m_TagString: Untagged
  m_Icon: {fileID: 0}
  m_NavMeshLayer: 0
  m_StaticEditorFlags: 0
  m_IsActive: 1
--- !u!4 &1802434742
Transform:
  m_ObjectHideFlags: 0
  m_CorrespondingSourceObject: {fileID: 0}
  m_PrefabInstance: {fileID: 0}
  m_PrefabAsset: {fileID: 0}
  m_GameObject: {fileID: 1802434741}
  m_LocalRotation: {x: 0, y: 0, z: 0, w: 1}
  m_LocalPosition: {x: 0, y: 0, z: 0}
  m_LocalScale: {x: 1, y: 1, z: 1}
  m_Children:
  - {fileID: 1954216207}
  - {fileID: 1991659644}
  - {fileID: 1739939240}
  m_Father: {fileID: 0}
  m_RootOrder: 2
  m_LocalEulerAnglesHint: {x: 0, y: 0, z: 0}
--- !u!1 &1861964117
GameObject:
  m_ObjectHideFlags: 0
  m_CorrespondingSourceObject: {fileID: 0}
  m_PrefabInstance: {fileID: 0}
  m_PrefabAsset: {fileID: 0}
  serializedVersion: 6
  m_Component:
  - component: {fileID: 1861964118}
  - component: {fileID: 1861964121}
  - component: {fileID: 1861964120}
  - component: {fileID: 1861964122}
  - component: {fileID: 1861964119}
  m_Layer: 0
  m_Name: InteractableManager
  m_TagString: Untagged
  m_Icon: {fileID: 0}
  m_NavMeshLayer: 0
  m_StaticEditorFlags: 0
  m_IsActive: 1
--- !u!4 &1861964118
Transform:
  m_ObjectHideFlags: 0
  m_CorrespondingSourceObject: {fileID: 0}
  m_PrefabInstance: {fileID: 0}
  m_PrefabAsset: {fileID: 0}
  m_GameObject: {fileID: 1861964117}
  m_LocalRotation: {x: 0, y: 0, z: 0, w: 1}
  m_LocalPosition: {x: 0, y: 0, z: 0}
  m_LocalScale: {x: 1, y: 1, z: 1}
  m_Children: []
  m_Father: {fileID: 311094136}
  m_RootOrder: 0
  m_LocalEulerAnglesHint: {x: 0, y: 0, z: 0}
--- !u!114 &1861964119
MonoBehaviour:
  m_ObjectHideFlags: 0
  m_CorrespondingSourceObject: {fileID: 0}
  m_PrefabInstance: {fileID: 0}
  m_PrefabAsset: {fileID: 0}
  m_GameObject: {fileID: 1861964117}
  m_Enabled: 1
  m_EditorHideFlags: 0
  m_Script: {fileID: 11500000, guid: 55ce6dd43cd7d034f9588c00fc2bb6b8, type: 3}
  m_Name: 
  m_EditorClassIdentifier: 
  maxDistance: 5
  layerMask:
    serializedVersion: 2
    m_Bits: 1
--- !u!114 &1861964120
MonoBehaviour:
  m_ObjectHideFlags: 0
  m_CorrespondingSourceObject: {fileID: 0}
  m_PrefabInstance: {fileID: 0}
  m_PrefabAsset: {fileID: 0}
  m_GameObject: {fileID: 1861964117}
  m_Enabled: 1
  m_EditorHideFlags: 0
  m_Script: {fileID: 11500000, guid: e39a1876f02fe3047882d6863d24d66f, type: 3}
  m_Name: 
  m_EditorClassIdentifier: 
--- !u!114 &1861964121
MonoBehaviour:
  m_ObjectHideFlags: 0
  m_CorrespondingSourceObject: {fileID: 0}
  m_PrefabInstance: {fileID: 0}
  m_PrefabAsset: {fileID: 0}
  m_GameObject: {fileID: 1861964117}
  m_Enabled: 1
  m_EditorHideFlags: 0
  m_Script: {fileID: 11500000, guid: baf31df02df33fb4c8933d20ac2690c8, type: 3}
  m_Name: 
  m_EditorClassIdentifier: 
--- !u!114 &1861964122
MonoBehaviour:
  m_ObjectHideFlags: 0
  m_CorrespondingSourceObject: {fileID: 0}
  m_PrefabInstance: {fileID: 0}
  m_PrefabAsset: {fileID: 0}
  m_GameObject: {fileID: 1861964117}
  m_Enabled: 1
  m_EditorHideFlags: 0
  m_Script: {fileID: 11500000, guid: e956115fd373fd340b40c15bef66460f, type: 3}
  m_Name: 
  m_EditorClassIdentifier: 
--- !u!1 &1950826845
GameObject:
  m_ObjectHideFlags: 0
  m_CorrespondingSourceObject: {fileID: 0}
  m_PrefabInstance: {fileID: 0}
  m_PrefabAsset: {fileID: 0}
  serializedVersion: 6
  m_Component:
  - component: {fileID: 1950826851}
  - component: {fileID: 1950826850}
  - component: {fileID: 1950826849}
  - component: {fileID: 1950826848}
  - component: {fileID: 1950826847}
  - component: {fileID: 1950826846}
  m_Layer: 0
  m_Name: Sphere (3)
  m_TagString: Untagged
  m_Icon: {fileID: 0}
  m_NavMeshLayer: 0
  m_StaticEditorFlags: 0
  m_IsActive: 1
--- !u!114 &1950826846
MonoBehaviour:
  m_ObjectHideFlags: 0
  m_CorrespondingSourceObject: {fileID: 0}
  m_PrefabInstance: {fileID: 0}
  m_PrefabAsset: {fileID: 0}
  m_GameObject: {fileID: 1950826845}
  m_Enabled: 1
  m_EditorHideFlags: 0
  m_Script: {fileID: 11500000, guid: 8c497def2ddfa27448a48ccdc8c7abbc, type: 3}
  m_Name: 
  m_EditorClassIdentifier: 
  collectableItemData: {fileID: 11400000, guid: 7bf3ca31b83892040a92eab76e081286, type: 2}
--- !u!114 &1950826847
MonoBehaviour:
  m_ObjectHideFlags: 0
  m_CorrespondingSourceObject: {fileID: 0}
  m_PrefabInstance: {fileID: 0}
  m_PrefabAsset: {fileID: 0}
  m_GameObject: {fileID: 1950826845}
  m_Enabled: 1
  m_EditorHideFlags: 0
  m_Script: {fileID: 11500000, guid: 5fea29bb7c508c244a1f805a5fd3fc4d, type: 3}
  m_Name: 
  m_EditorClassIdentifier: 
  outlineMode: 1
  outlineColor: {r: 0.063412234, g: 0.8962264, b: 0.06809444, a: 1}
  outlineWidth: 0
  precomputeOutline: 0
  bakeKeys: []
  bakeValues: []
--- !u!135 &1950826848
SphereCollider:
  m_ObjectHideFlags: 0
  m_CorrespondingSourceObject: {fileID: 0}
  m_PrefabInstance: {fileID: 0}
  m_PrefabAsset: {fileID: 0}
  m_GameObject: {fileID: 1950826845}
  m_Material: {fileID: 0}
  m_IsTrigger: 0
  m_Enabled: 1
  serializedVersion: 2
  m_Radius: 0.5
  m_Center: {x: 0, y: 0, z: 0}
--- !u!23 &1950826849
MeshRenderer:
  m_ObjectHideFlags: 0
  m_CorrespondingSourceObject: {fileID: 0}
  m_PrefabInstance: {fileID: 0}
  m_PrefabAsset: {fileID: 0}
  m_GameObject: {fileID: 1950826845}
  m_Enabled: 1
  m_CastShadows: 1
  m_ReceiveShadows: 1
  m_DynamicOccludee: 1
  m_MotionVectors: 1
  m_LightProbeUsage: 1
  m_ReflectionProbeUsage: 1
  m_RayTracingMode: 2
  m_RayTraceProcedural: 0
  m_RenderingLayerMask: 1
  m_RendererPriority: 0
  m_Materials:
  - {fileID: 2100000, guid: 31321ba15b8f8eb4c954353edc038b1d, type: 2}
  m_StaticBatchInfo:
    firstSubMesh: 0
    subMeshCount: 0
  m_StaticBatchRoot: {fileID: 0}
  m_ProbeAnchor: {fileID: 0}
  m_LightProbeVolumeOverride: {fileID: 0}
  m_ScaleInLightmap: 1
  m_ReceiveGI: 1
  m_PreserveUVs: 0
  m_IgnoreNormalsForChartDetection: 0
  m_ImportantGI: 0
  m_StitchLightmapSeams: 1
  m_SelectedEditorRenderState: 3
  m_MinimumChartSize: 4
  m_AutoUVMaxDistance: 0.5
  m_AutoUVMaxAngle: 89
  m_LightmapParameters: {fileID: 0}
  m_SortingLayerID: 0
  m_SortingLayer: 0
  m_SortingOrder: 0
  m_AdditionalVertexStreams: {fileID: 0}
--- !u!33 &1950826850
MeshFilter:
  m_ObjectHideFlags: 0
  m_CorrespondingSourceObject: {fileID: 0}
  m_PrefabInstance: {fileID: 0}
  m_PrefabAsset: {fileID: 0}
  m_GameObject: {fileID: 1950826845}
  m_Mesh: {fileID: 10207, guid: 0000000000000000e000000000000000, type: 0}
--- !u!4 &1950826851
Transform:
  m_ObjectHideFlags: 0
  m_CorrespondingSourceObject: {fileID: 0}
  m_PrefabInstance: {fileID: 0}
  m_PrefabAsset: {fileID: 0}
  m_GameObject: {fileID: 1950826845}
  m_LocalRotation: {x: -0, y: -0, z: -0, w: 1}
  m_LocalPosition: {x: 1.58, y: 1.7, z: 4.59}
  m_LocalScale: {x: 1, y: 1, z: 1}
  m_Children: []
  m_Father: {fileID: 0}
  m_RootOrder: 11
  m_LocalEulerAnglesHint: {x: 0, y: 0, z: 0}
--- !u!20 &1954216206 stripped
Camera:
  m_CorrespondingSourceObject: {fileID: 9005220659476430821, guid: 2d3a85ecde41a8246a79669975912b74, type: 3}
  m_PrefabInstance: {fileID: 60889539378096550}
  m_PrefabAsset: {fileID: 0}
--- !u!4 &1954216207 stripped
Transform:
  m_CorrespondingSourceObject: {fileID: 9005220659476430818, guid: 2d3a85ecde41a8246a79669975912b74, type: 3}
  m_PrefabInstance: {fileID: 60889539378096550}
  m_PrefabAsset: {fileID: 0}
--- !u!1001 &1979352518
PrefabInstance:
  m_ObjectHideFlags: 0
  serializedVersion: 2
  m_Modification:
    m_TransformParent: {fileID: 0}
    m_Modifications:
    - target: {fileID: 1663187150, guid: 2f7f3dde7ae722a4aafffe20691ad702, type: 3}
      propertyPath: thirdPersonInputs
      value: 
      objectReference: {fileID: 135756641613574975}
    - target: {fileID: 1663187150, guid: 2f7f3dde7ae722a4aafffe20691ad702, type: 3}
      propertyPath: starterAssetsInputs
      value: 
      objectReference: {fileID: 135756641613574975}
    - target: {fileID: 597308369130767402, guid: 2f7f3dde7ae722a4aafffe20691ad702, type: 3}
      propertyPath: m_Pivot.x
      value: 0
      objectReference: {fileID: 0}
    - target: {fileID: 597308369130767402, guid: 2f7f3dde7ae722a4aafffe20691ad702, type: 3}
      propertyPath: m_Pivot.y
      value: 0
      objectReference: {fileID: 0}
    - target: {fileID: 597308369130767402, guid: 2f7f3dde7ae722a4aafffe20691ad702, type: 3}
      propertyPath: m_RootOrder
      value: 5
      objectReference: {fileID: 0}
    - target: {fileID: 597308369130767402, guid: 2f7f3dde7ae722a4aafffe20691ad702, type: 3}
      propertyPath: m_AnchorMax.x
      value: 0
      objectReference: {fileID: 0}
    - target: {fileID: 597308369130767402, guid: 2f7f3dde7ae722a4aafffe20691ad702, type: 3}
      propertyPath: m_AnchorMax.y
      value: 0
      objectReference: {fileID: 0}
    - target: {fileID: 597308369130767402, guid: 2f7f3dde7ae722a4aafffe20691ad702, type: 3}
      propertyPath: m_AnchorMin.x
      value: 0
      objectReference: {fileID: 0}
    - target: {fileID: 597308369130767402, guid: 2f7f3dde7ae722a4aafffe20691ad702, type: 3}
      propertyPath: m_AnchorMin.y
      value: 0
      objectReference: {fileID: 0}
    - target: {fileID: 597308369130767402, guid: 2f7f3dde7ae722a4aafffe20691ad702, type: 3}
      propertyPath: m_SizeDelta.x
      value: 0
      objectReference: {fileID: 0}
    - target: {fileID: 597308369130767402, guid: 2f7f3dde7ae722a4aafffe20691ad702, type: 3}
      propertyPath: m_SizeDelta.y
      value: 0
      objectReference: {fileID: 0}
    - target: {fileID: 597308369130767402, guid: 2f7f3dde7ae722a4aafffe20691ad702, type: 3}
      propertyPath: m_LocalPosition.x
      value: 0
      objectReference: {fileID: 0}
    - target: {fileID: 597308369130767402, guid: 2f7f3dde7ae722a4aafffe20691ad702, type: 3}
      propertyPath: m_LocalPosition.y
      value: 0
      objectReference: {fileID: 0}
    - target: {fileID: 597308369130767402, guid: 2f7f3dde7ae722a4aafffe20691ad702, type: 3}
      propertyPath: m_LocalPosition.z
      value: 0
      objectReference: {fileID: 0}
    - target: {fileID: 597308369130767402, guid: 2f7f3dde7ae722a4aafffe20691ad702, type: 3}
      propertyPath: m_LocalRotation.w
      value: 1
      objectReference: {fileID: 0}
    - target: {fileID: 597308369130767402, guid: 2f7f3dde7ae722a4aafffe20691ad702, type: 3}
      propertyPath: m_LocalRotation.x
      value: 0
      objectReference: {fileID: 0}
    - target: {fileID: 597308369130767402, guid: 2f7f3dde7ae722a4aafffe20691ad702, type: 3}
      propertyPath: m_LocalRotation.y
      value: 0
      objectReference: {fileID: 0}
    - target: {fileID: 597308369130767402, guid: 2f7f3dde7ae722a4aafffe20691ad702, type: 3}
      propertyPath: m_LocalRotation.z
      value: 0
      objectReference: {fileID: 0}
    - target: {fileID: 597308369130767402, guid: 2f7f3dde7ae722a4aafffe20691ad702, type: 3}
      propertyPath: m_AnchoredPosition.x
      value: 0
      objectReference: {fileID: 0}
    - target: {fileID: 597308369130767402, guid: 2f7f3dde7ae722a4aafffe20691ad702, type: 3}
      propertyPath: m_AnchoredPosition.y
      value: 0
      objectReference: {fileID: 0}
    - target: {fileID: 597308369130767402, guid: 2f7f3dde7ae722a4aafffe20691ad702, type: 3}
      propertyPath: m_LocalEulerAnglesHint.x
      value: 0
      objectReference: {fileID: 0}
    - target: {fileID: 597308369130767402, guid: 2f7f3dde7ae722a4aafffe20691ad702, type: 3}
      propertyPath: m_LocalEulerAnglesHint.y
      value: 0
      objectReference: {fileID: 0}
    - target: {fileID: 597308369130767402, guid: 2f7f3dde7ae722a4aafffe20691ad702, type: 3}
      propertyPath: m_LocalEulerAnglesHint.z
      value: 0
      objectReference: {fileID: 0}
    - target: {fileID: 6751388636123340836, guid: 2f7f3dde7ae722a4aafffe20691ad702, type: 3}
      propertyPath: m_Name
      value: UI_Canvas_StarterAssetsInputs_Joysticks
      objectReference: {fileID: 0}
    - target: {fileID: 6751388636123340836, guid: 2f7f3dde7ae722a4aafffe20691ad702, type: 3}
      propertyPath: m_IsActive
      value: 0
      objectReference: {fileID: 0}
    - target: {fileID: 8890774966862588244, guid: 2f7f3dde7ae722a4aafffe20691ad702, type: 3}
      propertyPath: playerInput
      value: 
      objectReference: {fileID: 2006620068}
    m_RemovedComponents: []
  m_SourcePrefab: {fileID: 100100000, guid: 2f7f3dde7ae722a4aafffe20691ad702, type: 3}
--- !u!1 &1991659643
GameObject:
  m_ObjectHideFlags: 0
  m_CorrespondingSourceObject: {fileID: 0}
  m_PrefabInstance: {fileID: 0}
  m_PrefabAsset: {fileID: 0}
  serializedVersion: 6
  m_Component:
  - component: {fileID: 1991659644}
  - component: {fileID: 1991659645}
  m_Layer: 0
  m_Name: Ui Menu Cam
  m_TagString: Untagged
  m_Icon: {fileID: 0}
  m_NavMeshLayer: 0
  m_StaticEditorFlags: 0
  m_IsActive: 1
--- !u!4 &1991659644
Transform:
  m_ObjectHideFlags: 0
  m_CorrespondingSourceObject: {fileID: 0}
  m_PrefabInstance: {fileID: 0}
  m_PrefabAsset: {fileID: 0}
  m_GameObject: {fileID: 1991659643}
  m_LocalRotation: {x: 0, y: 0, z: 0, w: 1}
  m_LocalPosition: {x: 0, y: 0, z: 0}
  m_LocalScale: {x: 1, y: 1, z: 1}
  m_Children:
  - {fileID: 790020697}
  m_Father: {fileID: 1802434742}
  m_RootOrder: 1
  m_LocalEulerAnglesHint: {x: 0, y: 0, z: 0}
--- !u!114 &1991659645
MonoBehaviour:
  m_ObjectHideFlags: 0
  m_CorrespondingSourceObject: {fileID: 0}
  m_PrefabInstance: {fileID: 0}
  m_PrefabAsset: {fileID: 0}
  m_GameObject: {fileID: 1991659643}
  m_Enabled: 1
  m_EditorHideFlags: 0
  m_Script: {fileID: 11500000, guid: 45e653bab7fb20e499bda25e1b646fea, type: 3}
  m_Name: 
  m_EditorClassIdentifier: 
  m_ExcludedPropertiesInInspector:
  - m_Script
  m_LockStageInInspector: 
  m_StreamingVersion: 20170927
  m_Priority: 12
  m_StandbyUpdate: 2
  m_LookAt: {fileID: 0}
  m_Follow: {fileID: 0}
  m_Lens:
    FieldOfView: 60
    OrthographicSize: 5
    NearClipPlane: 0.2
    FarClipPlane: 500
    Dutch: 0
    LensShift: {x: 0, y: 0}
  m_Transitions:
    m_BlendHint: 0
    m_InheritPosition: 0
    m_OnCameraLive:
      m_PersistentCalls:
        m_Calls: []
  m_LegacyBlendHint: 0
  m_ComponentOwner: {fileID: 790020697}
--- !u!114 &2006620068 stripped
MonoBehaviour:
  m_CorrespondingSourceObject: {fileID: 8616685848737228376, guid: c5efc39a8aaf6e64ea40e9ad573e9b47, type: 3}
  m_PrefabInstance: {fileID: 5393215579111688471}
  m_PrefabAsset: {fileID: 0}
  m_GameObject: {fileID: 0}
  m_Enabled: 1
  m_EditorHideFlags: 0
  m_Script: {fileID: 11500000, guid: 62899f850307741f2a39c98a8b639597, type: 3}
  m_Name: 
  m_EditorClassIdentifier: 
--- !u!1001 &2084445384
PrefabInstance:
  m_ObjectHideFlags: 0
  serializedVersion: 2
  m_Modification:
    m_TransformParent: {fileID: 0}
    m_Modifications:
    - target: {fileID: 8345070699079395522, guid: 09aade0ecefd01e4b8f7661acf64f5c2, type: 3}
      propertyPath: m_RootOrder
      value: 3
      objectReference: {fileID: 0}
    - target: {fileID: 8345070699079395522, guid: 09aade0ecefd01e4b8f7661acf64f5c2, type: 3}
      propertyPath: m_LocalPosition.x
      value: 0
      objectReference: {fileID: 0}
    - target: {fileID: 8345070699079395522, guid: 09aade0ecefd01e4b8f7661acf64f5c2, type: 3}
      propertyPath: m_LocalPosition.y
      value: 0
      objectReference: {fileID: 0}
    - target: {fileID: 8345070699079395522, guid: 09aade0ecefd01e4b8f7661acf64f5c2, type: 3}
      propertyPath: m_LocalPosition.z
      value: 0
      objectReference: {fileID: 0}
    - target: {fileID: 8345070699079395522, guid: 09aade0ecefd01e4b8f7661acf64f5c2, type: 3}
      propertyPath: m_LocalRotation.w
      value: 1
      objectReference: {fileID: 0}
    - target: {fileID: 8345070699079395522, guid: 09aade0ecefd01e4b8f7661acf64f5c2, type: 3}
      propertyPath: m_LocalRotation.x
      value: 0
      objectReference: {fileID: 0}
    - target: {fileID: 8345070699079395522, guid: 09aade0ecefd01e4b8f7661acf64f5c2, type: 3}
      propertyPath: m_LocalRotation.y
      value: 0
      objectReference: {fileID: 0}
    - target: {fileID: 8345070699079395522, guid: 09aade0ecefd01e4b8f7661acf64f5c2, type: 3}
      propertyPath: m_LocalRotation.z
      value: 0
      objectReference: {fileID: 0}
    - target: {fileID: 8345070699079395522, guid: 09aade0ecefd01e4b8f7661acf64f5c2, type: 3}
      propertyPath: m_LocalEulerAnglesHint.x
      value: 0
      objectReference: {fileID: 0}
    - target: {fileID: 8345070699079395522, guid: 09aade0ecefd01e4b8f7661acf64f5c2, type: 3}
      propertyPath: m_LocalEulerAnglesHint.y
      value: 0
      objectReference: {fileID: 0}
    - target: {fileID: 8345070699079395522, guid: 09aade0ecefd01e4b8f7661acf64f5c2, type: 3}
      propertyPath: m_LocalEulerAnglesHint.z
      value: 0
      objectReference: {fileID: 0}
    - target: {fileID: 8345070699079395523, guid: 09aade0ecefd01e4b8f7661acf64f5c2, type: 3}
      propertyPath: m_Name
      value: Environment
      objectReference: {fileID: 0}
    m_RemovedComponents: []
  m_SourcePrefab: {fileID: 100100000, guid: 09aade0ecefd01e4b8f7661acf64f5c2, type: 3}
--- !u!1001 &60889539378096550
PrefabInstance:
  m_ObjectHideFlags: 0
  serializedVersion: 2
  m_Modification:
    m_TransformParent: {fileID: 1802434742}
    m_Modifications:
    - target: {fileID: 9005220659476430818, guid: 2d3a85ecde41a8246a79669975912b74, type: 3}
      propertyPath: m_RootOrder
      value: 0
      objectReference: {fileID: 0}
    - target: {fileID: 9005220659476430818, guid: 2d3a85ecde41a8246a79669975912b74, type: 3}
      propertyPath: m_LocalPosition.x
      value: 0
      objectReference: {fileID: 0}
    - target: {fileID: 9005220659476430818, guid: 2d3a85ecde41a8246a79669975912b74, type: 3}
      propertyPath: m_LocalPosition.y
      value: 0
      objectReference: {fileID: 0}
    - target: {fileID: 9005220659476430818, guid: 2d3a85ecde41a8246a79669975912b74, type: 3}
      propertyPath: m_LocalPosition.z
      value: 0
      objectReference: {fileID: 0}
    - target: {fileID: 9005220659476430818, guid: 2d3a85ecde41a8246a79669975912b74, type: 3}
      propertyPath: m_LocalRotation.w
      value: 1
      objectReference: {fileID: 0}
    - target: {fileID: 9005220659476430818, guid: 2d3a85ecde41a8246a79669975912b74, type: 3}
      propertyPath: m_LocalRotation.x
      value: -0
      objectReference: {fileID: 0}
    - target: {fileID: 9005220659476430818, guid: 2d3a85ecde41a8246a79669975912b74, type: 3}
      propertyPath: m_LocalRotation.y
      value: -0
      objectReference: {fileID: 0}
    - target: {fileID: 9005220659476430818, guid: 2d3a85ecde41a8246a79669975912b74, type: 3}
      propertyPath: m_LocalRotation.z
      value: -0
      objectReference: {fileID: 0}
    - target: {fileID: 9005220659476430818, guid: 2d3a85ecde41a8246a79669975912b74, type: 3}
      propertyPath: m_LocalEulerAnglesHint.x
      value: 0
      objectReference: {fileID: 0}
    - target: {fileID: 9005220659476430818, guid: 2d3a85ecde41a8246a79669975912b74, type: 3}
      propertyPath: m_LocalEulerAnglesHint.y
      value: 0
      objectReference: {fileID: 0}
    - target: {fileID: 9005220659476430818, guid: 2d3a85ecde41a8246a79669975912b74, type: 3}
      propertyPath: m_LocalEulerAnglesHint.z
      value: 0
      objectReference: {fileID: 0}
    - target: {fileID: 9005220659476430821, guid: 2d3a85ecde41a8246a79669975912b74, type: 3}
      propertyPath: field of view
      value: 60
      objectReference: {fileID: 0}
    - target: {fileID: 9005220659476430821, guid: 2d3a85ecde41a8246a79669975912b74, type: 3}
      propertyPath: far clip plane
      value: 500
      objectReference: {fileID: 0}
    - target: {fileID: 9005220659476430823, guid: 2d3a85ecde41a8246a79669975912b74, type: 3}
      propertyPath: m_Name
      value: MainCamera
      objectReference: {fileID: 0}
    m_RemovedComponents: []
  m_SourcePrefab: {fileID: 100100000, guid: 2d3a85ecde41a8246a79669975912b74, type: 3}
--- !u!114 &135756641613574975 stripped
MonoBehaviour:
  m_CorrespondingSourceObject: {fileID: 5420857361349278248, guid: c5efc39a8aaf6e64ea40e9ad573e9b47, type: 3}
  m_PrefabInstance: {fileID: 5393215579111688471}
  m_PrefabAsset: {fileID: 0}
  m_GameObject: {fileID: 0}
  m_Enabled: 1
  m_EditorHideFlags: 0
  m_Script: {fileID: 11500000, guid: e087ecce43ebbff45a1b360637807d93, type: 3}
  m_Name: 
  m_EditorClassIdentifier: 
--- !u!1 &2114283753834967212
GameObject:
  m_ObjectHideFlags: 0
  m_CorrespondingSourceObject: {fileID: 0}
  m_PrefabInstance: {fileID: 0}
  m_PrefabAsset: {fileID: 0}
  serializedVersion: 6
  m_Component:
  - component: {fileID: 2114283753834967213}
  m_Layer: 0
  m_Name: Lighting
  m_TagString: Untagged
  m_Icon: {fileID: 0}
  m_NavMeshLayer: 0
  m_StaticEditorFlags: 0
  m_IsActive: 1
--- !u!4 &2114283753834967213
Transform:
  m_ObjectHideFlags: 0
  m_CorrespondingSourceObject: {fileID: 0}
  m_PrefabInstance: {fileID: 0}
  m_PrefabAsset: {fileID: 0}
  m_GameObject: {fileID: 2114283753834967212}
  m_LocalRotation: {x: 0, y: 0, z: 0, w: 1}
  m_LocalPosition: {x: 0, y: 0, z: 0}
  m_LocalScale: {x: 1, y: 1, z: 1}
  m_Children:
  - {fileID: 2114283754330233426}
  - {fileID: 1028513133}
  - {fileID: 1764214108}
  - {fileID: 542508512}
  - {fileID: 874605736}
  m_Father: {fileID: 0}
  m_RootOrder: 1
  m_LocalEulerAnglesHint: {x: 0, y: 0, z: 0}
--- !u!1 &2114283754330233424
GameObject:
  m_ObjectHideFlags: 0
  m_CorrespondingSourceObject: {fileID: 0}
  m_PrefabInstance: {fileID: 0}
  m_PrefabAsset: {fileID: 0}
  serializedVersion: 6
  m_Component:
  - component: {fileID: 2114283754330233426}
  - component: {fileID: 2114283754330233425}
  m_Layer: 0
  m_Name: Directional Light
  m_TagString: Untagged
  m_Icon: {fileID: 0}
  m_NavMeshLayer: 0
  m_StaticEditorFlags: 0
  m_IsActive: 1
--- !u!108 &2114283754330233425
Light:
  m_ObjectHideFlags: 0
  m_CorrespondingSourceObject: {fileID: 0}
  m_PrefabInstance: {fileID: 0}
  m_PrefabAsset: {fileID: 0}
  m_GameObject: {fileID: 2114283754330233424}
  m_Enabled: 1
  serializedVersion: 10
  m_Type: 1
  m_Shape: 0
  m_Color: {r: 0.972549, g: 0.9607843, b: 0.8784314, a: 1}
  m_Intensity: 1
  m_Range: 10
  m_SpotAngle: 30
  m_InnerSpotAngle: 21.80208
  m_CookieSize: 10
  m_Shadows:
    m_Type: 2
    m_Resolution: 2
    m_CustomResolution: -1
    m_Strength: 1
    m_Bias: 0.125
    m_NormalBias: 0
    m_NearPlane: 0.2
    m_CullingMatrixOverride:
      e00: 1
      e01: 0
      e02: 0
      e03: 0
      e10: 0
      e11: 1
      e12: 0
      e13: 0
      e20: 0
      e21: 0
      e22: 1
      e23: 0
      e30: 0
      e31: 0
      e32: 0
      e33: 1
    m_UseCullingMatrixOverride: 0
  m_Cookie: {fileID: 0}
  m_DrawHalo: 0
  m_Flare: {fileID: 0}
  m_RenderMode: 0
  m_CullingMask:
    serializedVersion: 2
    m_Bits: 4294967295
  m_RenderingLayerMask: 1
  m_Lightmapping: 1
  m_LightShadowCasterMode: 0
  m_AreaSize: {x: 1, y: 1}
  m_BounceIntensity: 1
  m_ColorTemperature: 6570
  m_UseColorTemperature: 0
  m_BoundingSphereOverride: {x: 0, y: 5.693801e-39, z: 2.5987332e+32, w: 2.8900301e+29}
  m_UseBoundingSphereOverride: 0
  m_UseViewFrustumForShadowCasterCull: 1
  m_ShadowRadius: 0
  m_ShadowAngle: 0
--- !u!4 &2114283754330233426
Transform:
  m_ObjectHideFlags: 0
  m_CorrespondingSourceObject: {fileID: 0}
  m_PrefabInstance: {fileID: 0}
  m_PrefabAsset: {fileID: 0}
  m_GameObject: {fileID: 2114283754330233424}
  m_LocalRotation: {x: 0.40821788, y: -0.23456968, z: 0.10938163, w: 0.8754261}
  m_LocalPosition: {x: 39.455, y: 0, z: 7.815}
  m_LocalScale: {x: 1, y: 1, z: 1}
  m_Children: []
  m_Father: {fileID: 2114283753834967213}
  m_RootOrder: 0
  m_LocalEulerAnglesHint: {x: 50, y: -30, z: 0}
--- !u!1001 &5393215579111688471
PrefabInstance:
  m_ObjectHideFlags: 0
  serializedVersion: 2
  m_Modification:
    m_TransformParent: {fileID: 0}
    m_Modifications:
    - target: {fileID: 1429420746, guid: c5efc39a8aaf6e64ea40e9ad573e9b47, type: 3}
      propertyPath: m_Camera
      value: 
      objectReference: {fileID: 1954216206}
    - target: {fileID: 5420857361349278248, guid: c5efc39a8aaf6e64ea40e9ad573e9b47, type: 3}
      propertyPath: cursorLocked
      value: 1
      objectReference: {fileID: 0}
    - target: {fileID: 5420857361349278248, guid: c5efc39a8aaf6e64ea40e9ad573e9b47, type: 3}
      propertyPath: analogMovement
      value: 0
      objectReference: {fileID: 0}
    - target: {fileID: 5420857361349278248, guid: c5efc39a8aaf6e64ea40e9ad573e9b47, type: 3}
      propertyPath: cursorInputForLook
      value: 1
      objectReference: {fileID: 0}
    - target: {fileID: 8616685848737228372, guid: c5efc39a8aaf6e64ea40e9ad573e9b47, type: 3}
      propertyPath: m_Name
      value: PlayerCapsule
      objectReference: {fileID: 0}
    - target: {fileID: 8616685848737228372, guid: c5efc39a8aaf6e64ea40e9ad573e9b47, type: 3}
      propertyPath: m_IsActive
      value: 0
      objectReference: {fileID: 0}
    - target: {fileID: 8616685848737228376, guid: c5efc39a8aaf6e64ea40e9ad573e9b47, type: 3}
      propertyPath: m_Camera
      value: 
      objectReference: {fileID: 1954216206}
    - target: {fileID: 8616685848737228376, guid: c5efc39a8aaf6e64ea40e9ad573e9b47, type: 3}
      propertyPath: m_UIInputModule
      value: 
      objectReference: {fileID: 245581005}
    - target: {fileID: 8997996947095583982, guid: c5efc39a8aaf6e64ea40e9ad573e9b47, type: 3}
      propertyPath: m_RootOrder
      value: 4
      objectReference: {fileID: 0}
    - target: {fileID: 8997996947095583982, guid: c5efc39a8aaf6e64ea40e9ad573e9b47, type: 3}
      propertyPath: m_LocalPosition.x
      value: 0
      objectReference: {fileID: 0}
    - target: {fileID: 8997996947095583982, guid: c5efc39a8aaf6e64ea40e9ad573e9b47, type: 3}
      propertyPath: m_LocalPosition.y
      value: 0
      objectReference: {fileID: 0}
    - target: {fileID: 8997996947095583982, guid: c5efc39a8aaf6e64ea40e9ad573e9b47, type: 3}
      propertyPath: m_LocalPosition.z
      value: 0
      objectReference: {fileID: 0}
    - target: {fileID: 8997996947095583982, guid: c5efc39a8aaf6e64ea40e9ad573e9b47, type: 3}
      propertyPath: m_LocalRotation.w
      value: 1
      objectReference: {fileID: 0}
    - target: {fileID: 8997996947095583982, guid: c5efc39a8aaf6e64ea40e9ad573e9b47, type: 3}
      propertyPath: m_LocalRotation.x
      value: -0
      objectReference: {fileID: 0}
    - target: {fileID: 8997996947095583982, guid: c5efc39a8aaf6e64ea40e9ad573e9b47, type: 3}
      propertyPath: m_LocalRotation.y
      value: -0
      objectReference: {fileID: 0}
    - target: {fileID: 8997996947095583982, guid: c5efc39a8aaf6e64ea40e9ad573e9b47, type: 3}
      propertyPath: m_LocalRotation.z
      value: -0
      objectReference: {fileID: 0}
    - target: {fileID: 8997996947095583982, guid: c5efc39a8aaf6e64ea40e9ad573e9b47, type: 3}
      propertyPath: m_LocalEulerAnglesHint.x
      value: 0
      objectReference: {fileID: 0}
    - target: {fileID: 8997996947095583982, guid: c5efc39a8aaf6e64ea40e9ad573e9b47, type: 3}
      propertyPath: m_LocalEulerAnglesHint.y
      value: 0
      objectReference: {fileID: 0}
    - target: {fileID: 8997996947095583982, guid: c5efc39a8aaf6e64ea40e9ad573e9b47, type: 3}
      propertyPath: m_LocalEulerAnglesHint.z
      value: 0
      objectReference: {fileID: 0}
    m_RemovedComponents: []
  m_SourcePrefab: {fileID: 100100000, guid: c5efc39a8aaf6e64ea40e9ad573e9b47, type: 3}
--- !u!1001 &7288094137546172433
PrefabInstance:
  m_ObjectHideFlags: 0
  serializedVersion: 2
  m_Modification:
    m_TransformParent: {fileID: 1802434742}
    m_Modifications:
    - target: {fileID: 8762286023885395077, guid: 9c489a8547f4d9e4387da15a4ff82c81, type: 3}
      propertyPath: m_Name
      value: PlayerFollowCamera
      objectReference: {fileID: 0}
    - target: {fileID: 8762286023885395077, guid: 9c489a8547f4d9e4387da15a4ff82c81, type: 3}
      propertyPath: m_IsActive
      value: 1
      objectReference: {fileID: 0}
    - target: {fileID: 8762286023885395322, guid: 9c489a8547f4d9e4387da15a4ff82c81, type: 3}
      propertyPath: m_RootOrder
      value: 2
      objectReference: {fileID: 0}
    - target: {fileID: 8762286023885395322, guid: 9c489a8547f4d9e4387da15a4ff82c81, type: 3}
      propertyPath: m_LocalPosition.x
      value: 0.20000005
      objectReference: {fileID: 0}
    - target: {fileID: 8762286023885395322, guid: 9c489a8547f4d9e4387da15a4ff82c81, type: 3}
      propertyPath: m_LocalPosition.y
      value: 1.375
      objectReference: {fileID: 0}
    - target: {fileID: 8762286023885395322, guid: 9c489a8547f4d9e4387da15a4ff82c81, type: 3}
      propertyPath: m_LocalPosition.z
      value: 0
      objectReference: {fileID: 0}
    - target: {fileID: 8762286023885395322, guid: 9c489a8547f4d9e4387da15a4ff82c81, type: 3}
      propertyPath: m_LocalRotation.w
      value: 1
      objectReference: {fileID: 0}
    - target: {fileID: 8762286023885395322, guid: 9c489a8547f4d9e4387da15a4ff82c81, type: 3}
      propertyPath: m_LocalRotation.x
      value: -0
      objectReference: {fileID: 0}
    - target: {fileID: 8762286023885395322, guid: 9c489a8547f4d9e4387da15a4ff82c81, type: 3}
      propertyPath: m_LocalRotation.y
      value: -0
      objectReference: {fileID: 0}
    - target: {fileID: 8762286023885395322, guid: 9c489a8547f4d9e4387da15a4ff82c81, type: 3}
      propertyPath: m_LocalRotation.z
      value: -0
      objectReference: {fileID: 0}
    - target: {fileID: 8762286023885395322, guid: 9c489a8547f4d9e4387da15a4ff82c81, type: 3}
      propertyPath: m_LocalEulerAnglesHint.x
      value: 0
      objectReference: {fileID: 0}
    - target: {fileID: 8762286023885395322, guid: 9c489a8547f4d9e4387da15a4ff82c81, type: 3}
      propertyPath: m_LocalEulerAnglesHint.y
      value: 0
      objectReference: {fileID: 0}
    - target: {fileID: 8762286023885395322, guid: 9c489a8547f4d9e4387da15a4ff82c81, type: 3}
      propertyPath: m_LocalEulerAnglesHint.z
      value: 0
      objectReference: {fileID: 0}
    - target: {fileID: 8762286023885395323, guid: 9c489a8547f4d9e4387da15a4ff82c81, type: 3}
      propertyPath: m_Follow
      value: 
      objectReference: {fileID: 8338988565591873055}
    m_RemovedComponents: []
  m_SourcePrefab: {fileID: 100100000, guid: 9c489a8547f4d9e4387da15a4ff82c81, type: 3}
--- !u!4 &8338988565591873055 stripped
Transform:
  m_CorrespondingSourceObject: {fileID: 4135013735270702856, guid: c5efc39a8aaf6e64ea40e9ad573e9b47, type: 3}
  m_PrefabInstance: {fileID: 5393215579111688471}
  m_PrefabAsset: {fileID: 0}
